;*************************************************************
;*************************************************************
;**                                                         **
;**           PDF of Cauchy-Lorentz distribution            **
;**                                                         **
;*************************************************************
;*************************************************************
In: FL_SPCRES=0 FL_CPXRES=0 SD=0 RMODE=0 IM=2compl SS=4 WS=64
Func: fnCauchyP



;=======================================
; cauchyP(Long Integer) --> Real
;=======================================
In:  AM=DEG FL_ASLIFT=0 FL_CPXRES=0 RM=LonI:"0" RS=LonI:"1" RX=LonI:"0"
Out: EC=0 FL_CPXRES=0 FL_ASLIFT=1 RL=LonI:"0" RX=Real:"0.3183098861837906715377675267450287"

In:  AM=DEG FL_ASLIFT=0 FL_CPXRES=0 RM=LonI:"0" RS=LonI:"1" RX=LonI:"1"
Out: EC=0 FL_CPXRES=0 FL_ASLIFT=1 RL=LonI:"1" RX=Real:"0.1591549430918953357688837633725144"

In:  AM=DEG FL_ASLIFT=0 FL_CPXRES=0 RM=LonI:"0" RS=LonI:"1" RX=LonI:"-1"
Out: EC=0 FL_CPXRES=0 FL_ASLIFT=1 RL=LonI:"-1" RX=Real:"0.1591549430918953357688837633725144"

In:  AM=DEG FL_ASLIFT=0 FL_CPXRES=0 RM=LonI:"0" RS=LonI:"1" RX=LonI:"2"
Out: EC=0 FL_CPXRES=0 FL_ASLIFT=1 RL=LonI:"2" RX=Real:"0.06366197723675813430755350534900574"

In:  AM=DEG FL_ASLIFT=0 FL_CPXRES=0 RM=LonI:"0" RS=LonI:"1" RX=LonI:"-2"
Out: EC=0 FL_CPXRES=0 FL_ASLIFT=1 RL=LonI:"-2" RX=Real:"0.06366197723675813430755350534900574"

In:  AM=DEG FL_ASLIFT=0 FL_CPXRES=0 RM=LonI:"0" RS=LonI:"1" RX=LonI:"3"
Out: EC=0 FL_CPXRES=0 FL_ASLIFT=1 RL=LonI:"3" RX=Real:"0.03183098861837906715377675267450287"

In:  AM=DEG FL_ASLIFT=0 FL_CPXRES=0 RM=LonI:"0" RS=LonI:"1" RX=LonI:"-3"
Out: EC=0 FL_CPXRES=0 FL_ASLIFT=1 RL=LonI:"-3" RX=Real:"0.03183098861837906715377675267450287"

In:  AM=DEG FL_ASLIFT=0 FL_CPXRES=0 RM=LonI:"1" RS=LonI:"1" RX=LonI:"2"
Out: EC=0 FL_CPXRES=0 FL_ASLIFT=1 RL=LonI:"2" RX=Real:"0.1591549430918953357688837633725144"

In:  AM=DEG FL_ASLIFT=0 FL_CPXRES=0 RM=LonI:"1" RS=LonI:"2" RX=LonI:"3"
Out: EC=0 FL_CPXRES=0 FL_ASLIFT=1 RL=LonI:"3" RX=Real:"0.07957747154594766788444188168625718"



;=======================================
; cauchyP(Time) --> Error24
;=======================================



;=======================================
; cauchyP(Date) --> Error24
;=======================================



;=======================================
; cauchyP(String) --> Error24
;=======================================
In:  FL_ASLIFT=0 RX=Stri:"String test"
Out: EC=24 FL_ASLIFT=0 RX=Stri:"String test"



;=======================================
; cauchyP(Real Matrix) --> Error24
;=======================================



;=======================================
; cauchyP(Complex Matrix) --> Error24
;=======================================



;=======================================
; cauchyP(Short Integer) --> Error24
;=======================================



;=======================================
; cauchyP(Real) --> Real
;=======================================
In:  AM=DEG FL_ASLIFT=0 FL_CPXRES=0 RM=Real:"0" RS=Real:"1" RX=Real:"0"
Out: EC=0 FL_CPXRES=0 FL_ASLIFT=1 RL=Real:"0" RX=Real:"0.3183098861837906715377675267450287"

In:  AM=DEG FL_ASLIFT=0 FL_CPXRES=0 RM=Real:"0" RS=Real:"1" RX=Real:"1"
Out: EC=0 FL_CPXRES=0 FL_ASLIFT=1 RL=Real:"1" RX=Real:"0.1591549430918953357688837633725144"

In:  AM=DEG FL_ASLIFT=0 FL_CPXRES=0 RM=Real:"0" RS=Real:"1" RX=Real:"-1"
Out: EC=0 FL_CPXRES=0 FL_ASLIFT=1 RL=Real:"-1" RX=Real:"0.1591549430918953357688837633725144"

In:  AM=DEG FL_ASLIFT=0 FL_CPXRES=0 RM=Real:"0" RS=Real:"1" RX=Real:"2"
Out: EC=0 FL_CPXRES=0 FL_ASLIFT=1 RL=Real:"2" RX=Real:"0.06366197723675813430755350534900574"

In:  AM=DEG FL_ASLIFT=0 FL_CPXRES=0 RM=Real:"0" RS=Real:"1" RX=Real:"-2"
Out: EC=0 FL_CPXRES=0 FL_ASLIFT=1 RL=Real:"-2" RX=Real:"0.06366197723675813430755350534900574"

In:  AM=DEG FL_ASLIFT=0 FL_CPXRES=0 RM=Real:"0" RS=Real:"1" RX=Real:"3"
Out: EC=0 FL_CPXRES=0 FL_ASLIFT=1 RL=Real:"3" RX=Real:"0.03183098861837906715377675267450287"

In:  AM=DEG FL_ASLIFT=0 FL_CPXRES=0 RM=Real:"0" RS=Real:"1" RX=Real:"-3"
Out: EC=0 FL_CPXRES=0 FL_ASLIFT=1 RL=Real:"-3" RX=Real:"0.03183098861837906715377675267450287"

In:  AM=DEG FL_ASLIFT=0 FL_CPXRES=0 RM=Real:"1" RS=Real:"1" RX=Real:"2"
Out: EC=0 FL_CPXRES=0 FL_ASLIFT=1 RL=Real:"2" RX=Real:"0.1591549430918953357688837633725144"

In:  AM=DEG FL_ASLIFT=0 FL_CPXRES=0 RM=Real:"1" RS=Real:"2" RX=Real:"3"
Out: EC=0 FL_CPXRES=0 FL_ASLIFT=1 RL=Real:"3" RX=Real:"0.07957747154594766788444188168625718"



;=======================================
; cauchyP(Complex) --> Error24
;=======================================
