;*************************************************************
;*************************************************************
;**                                                         **
;**                     gammaXyLower                        **
;**                                                         **
;*************************************************************
;*************************************************************
In: FL_SPCRES=0 FL_CPXRES=0 SD=0 RMODE=0 IM=2compl SS=4 WS=64
Func: fnGammaX(0)



;=======================================
; gammaXyLower(Long Integer, Long Integer) --> Real
;=======================================
In:  AM=DEG FL_ASLIFT=0 FL_CPXRES=0 RY=LonI:"1" RX=LonI:"0"
Out: EC=1 FL_CPXRES=0 FL_ASLIFT=0 RY=LonI:"1" RX=LonI:"0"

In:  AM=DEG FL_ASLIFT=0 FL_CPXRES=0 RY=LonI:"1" RX=LonI:"1"
Out: EC=0 FL_CPXRES=0 FL_ASLIFT=1 RL=LonI:"1" RX=Real:"0.6321205588285576784044762298385391"



;=======================================
; gammaXyLower(Long Integer, Real) --> Real
;=======================================
In:  AM=DEG FL_ASLIFT=0 FL_CPXRES=0 RY=LonI:"1" RX=Real:"0"
Out: EC=1 FL_CPXRES=0 FL_ASLIFT=0 RY=LonI:"1" RX=Real:"0"

In:  AM=DEG FL_ASLIFT=0 FL_CPXRES=0 RY=LonI:"1" RX=Real:"1"
Out: EC=0 FL_CPXRES=0 FL_ASLIFT=1 RL=Real:"1" RX=Real:"0.6321205588285576784044762298385391"



;=======================================
; gammaXyLower(Real, Long Integer) --> Real
;=======================================
In:  AM=DEG FL_ASLIFT=0 FL_CPXRES=0 RY=Real:"1" RX=LonI:"0"
Out: EC=1 FL_CPXRES=0 FL_ASLIFT=0 RY=Real:"1" RX=LonI:"0"

In:  AM=DEG FL_ASLIFT=0 FL_CPXRES=0 RY=Real:"1" RX=LonI:"1"
Out: EC=0 FL_CPXRES=0 FL_ASLIFT=1 RL=LonI:"1" RX=Real:"0.6321205588285576784044762298385391"



;=======================================
; gammaXyLower(Time)
;=======================================



;=======================================
; gammaXyLower(Date)
;=======================================



;=======================================
; gammaXyLower(String) --> Error24
;=======================================
In:  FL_ASLIFT=0 RX=Stri:"String test"
Out: EC=24 FL_ASLIFT=0 RX=Stri:"String test"

In:  FL_ASLIFT=0 RY=Stri:"String test"
Out: EC=24 FL_ASLIFT=0 RY=Stri:"String test"



;=======================================
; gammaXyLower(Real Matrix)
;=======================================



;=======================================
; gammaXyLower(Complex Matrix)
;=======================================



;=======================================
; gammaXyLower(Short Integer) --> Error24
;=======================================



;=======================================
; gammaXyLower(Real, Real) --> Real
;=======================================
In:  AM=DEG FL_ASLIFT=0 FL_CPXRES=0 RY=Real:"1" RX=Real:"0"
Out: EC=1 FL_CPXRES=0 FL_ASLIFT=0 RY=Real:"1" RX=Real:"0"


In:  AM=DEG FL_ASLIFT=0 FL_CPXRES=0 RY=Real:"-1" RX=Real:"0.5"
Out: EC=1 FL_CPXRES=0 FL_ASLIFT=0 RY=Real:"-1" RX=Real:"0.5"

In:  AM=DEG FL_ASLIFT=0 FL_CPXRES=0 RY=Real:"0" RX=Real:"0.5"
Out: EC=0 FL_CPXRES=0 FL_ASLIFT=1 RL=Real:"0.5" RX=Real:"0"

In:  AM=DEG FL_ASLIFT=0 FL_CPXRES=0 RY=Real:"0.1" RX=Real:"0.5"
Out: EC=0 FL_CPXRES=0 FL_ASLIFT=1 RL=Real:"0.5" RX=Real:"0.6119913661117717805348016510769798"

In:  AM=DEG FL_ASLIFT=0 FL_CPXRES=0 RY=Real:"0.5" RX=Real:"0.5"
Out: EC=0 FL_CPXRES=0 FL_ASLIFT=1 RL=Real:"0.5" RX=Real:"1.210035619311108903018672526039102"

In:  AM=DEG FL_ASLIFT=0 FL_CPXRES=0 RY=Real:"1" RX=Real:"0.5"
Out: EC=0 FL_CPXRES=0 FL_ASLIFT=1 RL=Real:"0.5" RX=Real:"1.493648265624854050798934872263706"

In:  AM=DEG FL_ASLIFT=0 FL_CPXRES=0 RY=Real:"1.5" RX=Real:"0.5"
Out: EC=0 FL_CPXRES=0 FL_ASLIFT=1 RL=Real:"0.5" RX=Real:"1.624871337701419608517288365296035"

In:  AM=DEG FL_ASLIFT=0 FL_CPXRES=0 RY=Real:"2" RX=Real:"0.5"
Out: EC=0 FL_CPXRES=0 FL_ASLIFT=1 RL=Real:"0.5" RX=Real:"1.69180673294519833650954141031984"

In:  AM=DEG FL_ASLIFT=0 FL_CPXRES=0 RY=Real:"3" RX=Real:"0.5"
Out: EC=0 FL_CPXRES=0 FL_ASLIFT=1 RL=Real:"0.5" RX=Real:"1.747097341582052584108605593342408"

In:  AM=DEG FL_ASLIFT=0 FL_CPXRES=0 RY=Real:"5" RX=Real:"0.5"
Out: EC=0 FL_CPXRES=0 FL_ASLIFT=1 RL=Real:"0.5" RX=Real:"1.769679247645103217978676647613885"


In:  AM=DEG FL_ASLIFT=0 FL_CPXRES=0 RY=Real:"-1" RX=Real:"1"
Out: EC=1 FL_CPXRES=0 FL_ASLIFT=0 RY=Real:"-1" RX=Real:"1"

In:  AM=DEG FL_ASLIFT=0 FL_CPXRES=0 RY=Real:"0" RX=Real:"1"
Out: EC=0 FL_CPXRES=0 FL_ASLIFT=1 RL=Real:"1" RX=Real:"0"

In:  AM=DEG FL_ASLIFT=0 FL_CPXRES=0 RY=Real:"0.1" RX=Real:"1"
Out: EC=0 FL_CPXRES=0 FL_ASLIFT=1 RL=Real:"1" RX=Real:"0.09516258196404042683575094055356338"

In:  AM=DEG FL_ASLIFT=0 FL_CPXRES=0 RY=Real:"0.5" RX=Real:"1"
Out: EC=0 FL_CPXRES=0 FL_ASLIFT=1 RL=Real:"1" RX=Real:"0.3934693402873665763962004650088195"

In:  AM=DEG FL_ASLIFT=0 FL_CPXRES=0 RY=Real:"1" RX=Real:"1"
Out: EC=0 FL_CPXRES=0 FL_ASLIFT=1 RL=Real:"1" RX=Real:"0.6321205588285576784044762298385391"

In:  AM=DEG FL_ASLIFT=0 FL_CPXRES=0 RY=Real:"1.5" RX=Real:"1"
Out: EC=0 FL_CPXRES=0 FL_ASLIFT=1 RL=Real:"1" RX=Real:"0.7768698398515701710667195292359875"

In:  AM=DEG FL_ASLIFT=0 FL_CPXRES=0 RY=Real:"2" RX=Real:"1"
Out: EC=0 FL_CPXRES=0 FL_ASLIFT=1 RL=Real:"1" RX=Real:"0.8646647167633873081060005050275156"

In:  AM=DEG FL_ASLIFT=0 FL_CPXRES=0 RY=Real:"3" RX=Real:"1"
Out: EC=0 FL_CPXRES=0 FL_ASLIFT=1 RL=Real:"1" RX=Real:"0.9502129316321360570206575843499382"

In:  AM=DEG FL_ASLIFT=0 FL_CPXRES=0 RY=Real:"5" RX=Real:"1"
Out: EC=0 FL_CPXRES=0 FL_ASLIFT=1 RL=Real:"1" RX=Real:"0.9932620530009145329033639515768516"



;=======================================
; gammaXyLower(Complex)
;=======================================
