;*************************************************************
;*************************************************************
;**                                                         **
;**                        J -> DT                           **
;**                                                         **
;*************************************************************
;*************************************************************
In: FL_SPCRES=0 FL_CPXRES=0 SD=0 RMODE=0 IM=2compl SS=4 WS=64
Func: fnJulianToDateTime



;=======================================
; jtodt(Long Integer) --> Date
;=======================================
In:  FL_YMD=1 FL_MDY=0 FL_DMY=0 JG=2299161 FL_ASLIFT=0 FL_CPXRES=0 RX=LonI:"2299161" RY=Real:"0.0"
Out: FL_YMD=1 FL_MDY=0 FL_DMY=0 JG=2299161 EC=0 FL_CPXRES=0 FL_ASLIFT=1 RL=LonI:"2299161" RX=Time:"12:00:00"
;RY=Date:"1582.1015"
;Testsuite does not work for input one register and output 2 registers. Only X checked.

In:  FL_YMD=1 FL_MDY=0 FL_DMY=0 JG=2299161 FL_ASLIFT=0 FL_CPXRES=0 RX=LonI:"2299160" RY=Real:"0.0"
Out: FL_YMD=1 FL_MDY=0 FL_DMY=0 JG=2299161 EC=0 FL_CPXRES=0 FL_ASLIFT=1 RL=LonI:"2299160" RX=Time:"12:00:00"
;RY=Date:"1582.1004"
;Testsuite does not work for input one register and output 2 registers. Only X checked.

;=======================================
; jtodt(Real) --> Date
;=======================================
In:  FL_YMD=1 FL_MDY=0 FL_DMY=0 JG=2299161 FL_ASLIFT=0 FL_CPXRES=0 RX=Real:"2299161.0"
Out: FL_YMD=1 FL_MDY=0 FL_DMY=0 JG=2299161 EC=0 FL_CPXRES=0 FL_ASLIFT=1 RL=Real:"2299161.0" RX=Time:"12:00:00"
;RY=Date:"1582.1015"
;Testsuite does not work for input one register and output 2 registers. Only X checked.



;=======================================
; jtodt(Time) --> Error24
;=======================================
In:  FL_YMD=1 FL_MDY=0 FL_DMY=0 JG=2299161 FL_ASLIFT=0 FL_CPXRES=0 RX=Time:"12:34:56.789"
Out: FL_YMD=1 FL_MDY=0 FL_DMY=0 JG=2299161 EC=24 FL_CPXRES=0 FL_ASLIFT=0 RX=Time:"12:34:56.789"



;=======================================
; jtodt(Date) --> Error24
;=======================================
In:  FL_YMD=1 FL_MDY=0 FL_DMY=0 JG=2299161 FL_ASLIFT=0 FL_CPXRES=0 RX=Date:"1970.0101"
Out: FL_YMD=1 FL_MDY=0 FL_DMY=0 JG=2299161 EC=24 FL_CPXRES=0 FL_ASLIFT=0 RX=Date:"1970.0101"



;=======================================
; jtodt(String) --> Error24
;=======================================
In:  FL_ASLIFT=0 RX=Stri:"String test"
Out: EC=24 FL_ASLIFT=0 RX=Stri:"String test"



;=======================================
; jtodt(Real Matrix) --> Error24
;=======================================



;=======================================
; jtodt(Complex Matrix) --> Error24
;=======================================



;=======================================
; jtodt(Short Integer) --> Error24
;=======================================
In:  FL_ASLIFT=0 FL_CPXRES=0 WS=64 IM=2compl RX=ShoI:"5#7"
Out: EC=24 FL_CPXRES=0 FL_ASLIFT=0 RX=ShoI:"5#7"



;=======================================
; jtodt(Complex) --> Error24
;=======================================
In:  AM=DEG FL_ASLIFT=0 FL_CPXRES=0 RX=Cplx:"6.2 i -7.6"
Out: EC=24 FL_ASLIFT=0 RX=Cplx:"6.2 i -7.6"
