;*************************************************************
;*************************************************************
;**                                                         **
;**                          ln                             **
;**                                                         **
;*************************************************************
;*************************************************************
In: FL_SPCRES=0 FL_CPXRES=0 SD=0 RMODE=0 IM=2compl SS=4 WS=64
Func: fnLn



;=======================================
; ln(Long Integer) --> Real
;=======================================
In:  AM=DEG FL_ASLIFT=0 FL_CPXRES=0 RX=LonI:"5"
Out: EC=0 FL_CPXRES=0 FL_ASLIFT=1 RL=LonI:"5" RX=Real:"1.6094379124341003746007593332261876395256013542685177219126479"

In:  AM=DEG FL_ASLIFT=0 FL_CPXRES=0 RX=LonI:"-5"
Out: EC=1 FL_CPXRES=0 FL_ASLIFT=0 RX=LonI:"-5"

In:  AM=DEG FL_ASLIFT=0 FL_CPXRES=0 FL_SPCRES=1 RX=LonI:"-5"
Out: EC=0 FL_CPXRES=0 FL_ASLIFT=1 RL=LonI:"-5" RX=Real:"NaN"

In:  AM=DEG FL_ASLIFT=0 FL_CPXRES=1 FL_SPCRES=0 RX=LonI:"-5"
Out: EC=0 FL_CPXRES=1 FL_ASLIFT=1 RL=LonI:"-5" RX=Cplx:"1.6094379124341003746007593332261876395256013542685177219126479 i +3.1415926535897932384626433832795028841971693993751058209749446"

In:  AM=DEG FL_ASLIFT=0 FL_CPXRES=0 FL_SPCRES=0 RX=LonI:"0"
Out: EC=1 FL_CPXRES=0 FL_ASLIFT=0 RX=LonI:"0"

In:  AM=DEG FL_ASLIFT=0 FL_CPXRES=0 FL_SPCRES=1 RX=LonI:"0"
Out: EC=0 FL_CPXRES=0 FL_ASLIFT=1 RL=LonI:"0" RX=Real:"-inf"



;=======================================
; ln(Time)
;=======================================



;=======================================
; ln(Date)
;=======================================



;=======================================
; ln(String) --> Error24
;=======================================
In:  FL_ASLIFT=0 RX=Stri:"String test"
Out: EC=24 FL_ASLIFT=0 RX=Stri:"String test"



;=======================================
; ln(Real Matrix)
;=======================================
In:  AM=RAD FL_ASLIFT=0 FL_CPXRES=0 RX=ReMa:"M2,3[1,0.2,3,4,0.5,6]"
Out: EC=0 FL_CPXRES=0 FL_ASLIFT=1 RL=ReMa:"M2,3[1,0.2,3,4,0.5,6]" RX=ReMa:"M2,3[0,-1.60943791243410037460075933322618763953,1.09861228866810969139524523692252570465,1.38629436111989061883446424291635313615,-0.693147180559945309417232121458176568076,1.79175946922805500081247735838070227272]"

In:  AM=RAD FL_ASLIFT=0 FL_CPXRES=0 FL_SPCRES=0 RX=ReMa:"M2,3[-1,-0.2,-3,-4,-0.5,-6]"
Out: EC=1 FL_CPXRES=0 FL_ASLIFT=0 RX=ReMa:"M2,3[-1,-0.2,-3,-4,-0.5,-6]"

In:  AM=RAD FL_ASLIFT=0 FL_CPXRES=0 FL_SPCRES=1 RX=ReMa:"M2,3[-1,-0.2,-3,-4,-0.5,-6]"
Out: EC=0 FL_CPXRES=0 FL_ASLIFT=1 RL=ReMa:"M2,3[-1,-0.2,-3,-4,-0.5,-6]" RX=ReMa:"M2,3[NaN,NaN,NaN,NaN,NaN,NaN]"

In:  AM=RAD FL_ASLIFT=0 FL_CPXRES=1 RX=ReMa:"M2,3[-1,-0.2,-3,-4,-0.5,-6]"
Out: EC=0 FL_CPXRES=1 FL_ASLIFT=1 RL=ReMa:"M2,3[-1,-0.2,-3,-4,-0.5,-6]" RX=CxMa:"M2,3[0i3.14159265358979323846264338327950288420,-1.60943791243410037460075933322618763953i3.14159265358979323846264338327950288420,1.09861228866810969139524523692252570465i3.14159265358979323846264338327950288420,1.38629436111989061883446424291635313615i3.14159265358979323846264338327950288420,-0.693147180559945309417232121458176568076i3.14159265358979323846264338327950288420,1.79175946922805500081247735838070227272i3.14159265358979323846264338327950288420]"



;=======================================
; ln(Complex Matrix)
;=======================================
In:  AM=RAD FL_ASLIFT=0 FL_CPXRES=0 RX=CxMa:"M2,3[-1,0i-1,2i-1,-3i2,4i3,-5i-4]"
Out: EC=0 FL_CPXRES=1 FL_ASLIFT=1 RL=CxMa:"M2,3[-1,0i-1,2i-1,-3i2,4i3,-5i-4]" RX=CxMa:"M2,3[0i3.14159265358979323846264338327950288420,0i-1.57079632679489661923132169163975144210,0.804718956217050187300379666613093819763i-0.463647609000806116214256231461214402029,1.28247467873076836802674372078265930240i2.55359005004222568721703230265441745660,1.60943791243410037460075933322618763953i0.64350110879328438680280922871732263804,1.85678603335215390193338168651870379419i-2.46685171136624057540612240966968926912]"



;=======================================
; ln(Short Integer) --> Real
;=======================================
In:  FL_ASLIFT=0 FL_CPXRES=0 RX=ShoI:"5#7"
Out: EC=0 FL_CPXRES=0 FL_ASLIFT=1 RL=ShoI:"5#7" RX=Real:"1.6094379124341003746007593332261876395256013542685177219126479"

In:  FL_ASLIFT=0 FL_CPXRES=0 FL_SPCRES=1 RX=ShoI:"0#3"
Out: EC=0 FL_CPXRES=0 FL_ASLIFT=1 RL=ShoI:"0#3" RX=Real:"-inf"

In:  FL_ASLIFT=0 FL_CPXRES=0 FL_SPCRES=0 RX=ShoI:"0#3"
Out: EC=1 FL_CPXRES=0 FL_ASLIFT=0 RX=ShoI:"0#3"

In:  FL_ASLIFT=0 FL_CPXRES=1 RX=ShoI:"-5#7"
Out: EC=0 FL_CPXRES=1 FL_ASLIFT=1 RL=ShoI:"-5#7" RX=Cplx:"1.6094379124341003746007593332261876395256013542685177219126479 i +3.1415926535897932384626433832795028841971693993751058209749446"

In:  FL_ASLIFT=0 FL_CPXRES=0 FL_SPCRES=1 RX=ShoI:"-5#7"
Out: EC=0 FL_CPXRES=0 FL_ASLIFT=1 RL=ShoI:"-5#7" RX=Real:"NaN"

In:  FL_ASLIFT=0 FL_CPXRES=0 FL_SPCRES=0 RX=ShoI:"-5#7"
Out: EC=1 FL_CPXRES=0 FL_ASLIFT=0 RX=ShoI:"-5#7"



;=======================================
; ln(Real) --> Real
;=======================================
In:  AM=DEG FL_ASLIFT=0 FL_CPXRES=0 FL_SPCRES=0 RX=Real:"0.0001"
Out: EC=0 FL_CPXRES=0 FL_ASLIFT=1 RL=Real:"0.0001" RX=Real:"-9.2103403719761827360719658187374568304044059545150919041333116"

In:  AM=GRAD FL_ASLIFT=0 FL_CPXRES=0 RX=Real:"50"
Out: EC=0 FL_CPXRES=0 FL_ASLIFT=1 RL=Real:"50" RX=Real:"3.9120230054281460586187507879105518471267028428972906979459758"

In:  AM=DEG FL_ASLIFT=0 FL_CPXRES=0 RX=Real:"89.99999"
Out: EC=0 FL_CPXRES=0 FL_ASLIFT=1 RL=Real:"89.99999" RX=Real:"4.4998095592191477828574073971698667642482813118134294911960506"

In:  FL_ASLIFT=0 FL_CPXRES=0 RX=Real:"5.32564":DMS
Out: EC=0 FL_CPXRES=0 FL_ASLIFT=1 RL=Real:"5.32564":DMS RX=Real:"1.6725328921669418517652012686144062999663632357943689961903248"

In:  FL_ASLIFT=0 FL_CPXRES=0 RX=Real:"-5.32564":GRAD
Out: EC=1 FL_CPXRES=0 FL_ASLIFT=0 RX=Real:"-5.32564":GRAD

In:  FL_ASLIFT=0 FL_CPXRES=1 RX=Real:"-5.32564":GRAD
Out: EC=0 FL_CPXRES=1 FL_ASLIFT=1 RL=Real:"-5.32564":GRAD RX=Cplx:"1.6725328921669418517652012686144062999663632357943689961903248 i +3.1415926535897932384626433832795028841971693993751058209749446"

In:  AM=DEG FL_ASLIFT=0 FL_CPXRES=0 FL_SPCRES=0 RX=Real:"0"
Out: EC=1 FL_CPXRES=0 FL_ASLIFT=0 RX=Real:"0"

In:  AM=DEG FL_ASLIFT=0 FL_CPXRES=0 FL_SPCRES=1 RX=Real:"0"
Out: EC=0 FL_CPXRES=0 FL_ASLIFT=1 RL=Real:"0" RX=Real:"-inf"

In:  AM=DEG FL_ASLIFT=0 FL_CPXRES=0 FL_SPCRES=0 RX=Real:"-5"
Out: EC=1 FL_CPXRES=0 FL_ASLIFT=0 RX=Real:"-5"

In:  AM=DEG FL_ASLIFT=0 FL_CPXRES=0 FL_SPCRES=1 RX=Real:"-5"
Out: EC=0 FL_CPXRES=0 FL_ASLIFT=1 RL=Real:"-5" RX=Real:"NaN"

In:  AM=DEG FL_ASLIFT=0 FL_CPXRES=1 FL_SPCRES=0 RX=Real:"-5"
Out: EC=0 FL_CPXRES=1 FL_ASLIFT=1 RL=Real:"-5" RX=Cplx:"1.6094379124341003746007593332261876395256013542685177219126479 i +3.1415926535897932384626433832795028841971693993751058209749446"

; NaN
In:  FL_ASLIFT=0 FL_CPXRES=0 RX=Real:"NaN":RAD
Out: EC=0 FL_CPXRES=0 FL_ASLIFT=1 RL=Real:"NaN":RAD RX=Real:"NaN"

In:  FL_ASLIFT=0 FL_CPXRES=0 RX=Real:"NaN"
Out: EC=0 FL_CPXRES=0 FL_ASLIFT=1 RL=Real:"NaN" RX=Real:"NaN"

; Infinity
In:  FL_ASLIFT=0 FL_CPXRES=0 FL_SPCRES=1 RX=Real:"inf":DEG
Out: EC=0 FL_CPXRES=0 FL_ASLIFT=1 RL=Real:"inf":DEG RX=Real:"inf"

In:  FL_ASLIFT=0 FL_CPXRES=0 FL_SPCRES=0 RX=Real:"inf":MULTPI
Out: EC=1 FL_CPXRES=0 FL_ASLIFT=0 RX=Real:"inf":MULTPI

In:  FL_ASLIFT=0 FL_CPXRES=0 FL_SPCRES=1 RX=Real:"inf"
Out: EC=0 FL_CPXRES=0 FL_ASLIFT=1 RL=Real:"inf" RX=Real:"inf"

In:  FL_ASLIFT=0 FL_CPXRES=0 FL_SPCRES=0 RX=Real:"inf"
Out: EC=1 FL_CPXRES=0 FL_ASLIFT=0 RX=Real:"inf"

In:  FL_ASLIFT=0 FL_CPXRES=0 FL_SPCRES=0 RX=Real:"-inf"
Out: EC=1 FL_CPXRES=0 FL_ASLIFT=0 RX=Real:"-inf"

In:  FL_ASLIFT=0 FL_CPXRES=0 FL_SPCRES=1 RX=Real:"-inf":DMS
Out: EC=0 FL_CPXRES=0 FL_ASLIFT=1 RL=Real:"-inf":DMS RX=Real:"NaN"

In:  FL_ASLIFT=0 FL_CPXRES=0 FL_SPCRES=0 RX=Real:"-inf":MULTPI
Out: EC=1 FL_CPXRES=0 FL_ASLIFT=0 RX=Real:"-inf":MULTPI

In:  FL_ASLIFT=0 FL_CPXRES=0 FL_SPCRES=1 RX=Real:"-inf":RAD
Out: EC=0 FL_CPXRES=0 FL_ASLIFT=1 RL=Real:"-inf":RAD RX=Real:"NaN"



;=======================================
; ln(Complex) --> Complex
;=======================================
In:  AM=DEG FL_ASLIFT=0 FL_CPXRES=0 RX=Cplx:"6.2 i -7.6"
Out: EC=0 FL_CPXRES=1 FL_ASLIFT=1 RL=Cplx:"6.2 i -7.6" RX=Cplx:"2.2832146788358304029104118896852890645898720888296627790756552 i -0.88650153513374682918073902244235637563185763987701679851894587"

In:  AM=DEG FL_ASLIFT=0 FL_CPXRES=0 RX=Cplx:"0.1987661103464129406288031913435847 i 0.3095598756531121984439128249151294"
Out: EC=0 FL_CPXRES=1 FL_ASLIFT=1 RL=Cplx:"0.1987661103464129406288031913435847 i 0.3095598756531121984439128249151294" RX=Cplx:"-1 i 1"

In:  FL_ASLIFT=0 FL_CPXRES=0 FL_SPCRES=1 RX=Cplx:"0 i 0"
Out: EC=0 FL_CPXRES=1 FL_ASLIFT=1 RL=Cplx:"0 i 0" RX=Cplx:"-inf i 0"

In:  FL_ASLIFT=0 FL_CPXRES=0 FL_SPCRES=0 RX=Cplx:"0 i 0"
Out: EC=1 FL_CPXRES=0 FL_ASLIFT=0 RX=Cplx:"0 i 0"
