;*************************************************************
;*************************************************************
;**                                                         **
;**             functions specific to matrices              **
;**                                                         **
;*************************************************************
;*************************************************************
In: FL_SPCRES=0 FL_CPXRES=0 SD=0 RMODE=0 IM=2compl SS=4 WS=64



;=======================================
; transpose
;=======================================
Func: fnTranspose
In: FL_ASLIFT=0 FL_CPXRES=0 IM=2COMPL RX=ReMa:"M3,2[1,2,3,4,5,6]"
Out: EC=0 FL_CPXRES=0 FL_ASLIFT=1 RL=ReMa:"M3,2[1,2,3,4,5,6]" RX=ReMa:"M2,3[1,3,5,2,4,6]"

In: FL_ASLIFT=0 FL_CPXRES=0 IM=2COMPL RX=CxMa:"M3,2[1i2,3i4,5i6,7i8,9i10,11i12]"
Out: EC=0 FL_CPXRES=1 FL_ASLIFT=1 RL=CxMa:"M3,2[1i2,3i4,5i6,7i8,9i10,11i12]" RX=CxMa:"M2,3[1i2,5i6,9i10,3i4,7i8,11i12]"

In: FL_ASLIFT=0 FL_CPXRES=0 IM=2COMPL RX=Real:"2"
Out: EC=24 FL_CPXRES=0 FL_ASLIFT=0 RX=Real:"2"



;=======================================
; LU decomposition
;=======================================
Func: fnLuDecomposition
In: FL_ASLIFT=0 FL_CPXRES=0 IM=2COMPL RX=ReMa:"M2,2[1,2,3,4]"
Out: EC=0 FL_CPXRES=0 FL_ASLIFT=1 RL=ReMa:"M2,2[1,2,3,4]" RZ=ReMa:"M2,2[?,?,?,?]" RY=ReMa:"M2,2[1,0,?,1]" RX=ReMa:"M2,2[?,?,0,?]"
Func: fnMultiply ; check undoing decomposition
Out: EC=0 FL_CPXRES=0 FL_ASLIFT=1
Out: EC=0 FL_CPXRES=0 FL_ASLIFT=1 RX=ReMa:"M2,2[1,2,3,4]"

Func: fnLuDecomposition
In: FL_ASLIFT=0 FL_CPXRES=0 IM=2COMPL RX=ReMa:"M2,2[1,2,2,4]"
Out: EC=22 FL_CPXRES=0 FL_ASLIFT=0 RX=ReMa:"M2,2[1,2,2,4]"

In: FL_ASLIFT=0 FL_CPXRES=0 IM=2COMPL RX=ReMa:"M3,2[1,2,3,4,5,6]"
Out: EC=21 FL_CPXRES=0 FL_ASLIFT=0 RX=ReMa:"M3,2[1,2,3,4,5,6]"

In: FL_ASLIFT=0 FL_CPXRES=0 IM=2COMPL RX=CxMa:"M2,2[1i2,3i4,5i6,7i8]"
Out: EC=0 FL_CPXRES=1 FL_ASLIFT=1 RL=CxMa:"M2,2[1i2,3i4,5i6,7i8]" RZ=ReMa:"M2,2[?,?,?,?]" RY=CxMa:"M2,2[1,0,?,1]" RX=CxMa:"M2,2[?,?,0,?]"
Func: fnMultiply ; check undoing decomposition
Out: EC=0 FL_CPXRES=1 FL_ASLIFT=1
Out: EC=0 FL_CPXRES=1 FL_ASLIFT=1 RX=CxMa:"M2,2[1i2,3i4,5i6,7i8]"

Func: fnLuDecomposition
In: FL_ASLIFT=0 FL_CPXRES=0 IM=2COMPL RX=CxMa:"M2,2[1i0,0i1,-1i0,0i-1]"
Out: EC=22 FL_CPXRES=0 FL_ASLIFT=0 RX=CxMa:"M2,2[1i0,0i1,-1i0,0i-1]"

In: FL_ASLIFT=0 FL_CPXRES=0 IM=2COMPL RX=CxMa:"M3,2[1i2,3i4,5i6,7i8,9i10,11i12]"
Out: EC=21 FL_CPXRES=0 FL_ASLIFT=0 RX=CxMa:"M3,2[1i2,3i4,5i6,7i8,9i10,11i12]"

In: FL_ASLIFT=0 FL_CPXRES=0 IM=2COMPL RX=Real:"2"
Out: EC=24 FL_CPXRES=0 FL_ASLIFT=0 RX=Real:"2"



;=======================================
; Determinant
;=======================================
Func: fnDeterminant
In: FL_ASLIFT=0 FL_CPXRES=0 IM=2COMPL RX=ReMa:"M2,2[1,2,3,4]"
Out: EC=0 FL_CPXRES=0 FL_ASLIFT=1 RL=ReMa:"M2,2[1,2,3,4]" RX=Real:"-2"

In: FL_ASLIFT=0 FL_CPXRES=0 IM=2COMPL RX=ReMa:"M2,2[1,2,2,4]"
Out: EC=0 FL_CPXRES=0 FL_ASLIFT=1 RL=ReMa:"M2,2[1,2,2,4]" RX=Real:"0"

In: FL_ASLIFT=0 FL_CPXRES=0 IM=2COMPL RX=ReMa:"M3,2[1,2,3,4,5,6]"
Out: EC=21 FL_CPXRES=0 FL_ASLIFT=0 RX=ReMa:"M3,2[1,2,3,4,5,6]"

In: FL_ASLIFT=0 FL_CPXRES=0 IM=2COMPL RX=CxMa:"M2,2[1i2,3i4,5i6,7i8]"
Out: EC=0 FL_CPXRES=1 FL_ASLIFT=1 RL=CxMa:"M2,2[1i2,3i4,5i6,7i8]" RX=Cplx:"0i-16"

In: FL_ASLIFT=0 FL_CPXRES=0 IM=2COMPL RX=CxMa:"M2,2[1i0,0i1,-1i0,0i-1]"
Out: EC=0 FL_CPXRES=1 FL_ASLIFT=1 RL=CxMa:"M2,2[1i0,0i1,-1i0,0i-1]" RX=Cplx:"0i0"

In: FL_ASLIFT=0 FL_CPXRES=0 IM=2COMPL RX=CxMa:"M3,2[1i2,3i4,5i6,7i8,9i10,11i12]"
Out: EC=21 FL_CPXRES=0 FL_ASLIFT=0 RX=CxMa:"M3,2[1i2,3i4,5i6,7i8,9i10,11i12]"

In: FL_ASLIFT=0 FL_CPXRES=0 IM=2COMPL RX=Real:"2"
Out: EC=24 FL_CPXRES=0 FL_ASLIFT=0 RX=Real:"2"



;=======================================
; Inverse matrix
;=======================================
Func: fnInvertMatrix
In: FL_ASLIFT=0 FL_CPXRES=0 IM=2COMPL RX=ReMa:"M2,2[1,2,3,4]"
Out: EC=0 FL_CPXRES=0 FL_ASLIFT=1 RL=ReMa:"M2,2[1,2,3,4]" RX=ReMa:"M2,2[-2,1,1.5,-0.5]"

In: FL_ASLIFT=0 FL_CPXRES=0 IM=2COMPL RX=ReMa:"M2,2[1,2,2,4]"
Out: EC=22 FL_CPXRES=0 FL_ASLIFT=0 RX=ReMa:"M2,2[1,2,2,4]"

In: FL_ASLIFT=0 FL_CPXRES=0 IM=2COMPL RX=ReMa:"M3,2[1,2,3,4,5,6]"
Out: EC=21 FL_CPXRES=0 FL_ASLIFT=0 RX=ReMa:"M3,2[1,2,3,4,5,6]"

In: FL_ASLIFT=0 FL_CPXRES=0 IM=2COMPL RX=CxMa:"M2,2[1i2,3i4,5i6,7i8]"
Out: EC=0 FL_CPXRES=1 FL_ASLIFT=1 RL=CxMa:"M2,2[1i2,3i4,5i6,7i8]" RX=CxMa:"M2,2[-0.5i0.4375,0.25i-0.1875,0.375i-0.3125,-0.125i0.0625]"

In: FL_ASLIFT=0 FL_CPXRES=0 IM=2COMPL RX=CxMa:"M2,2[1i0,0i1,-1i0,0i-1]"
Out: EC=22 FL_CPXRES=0 FL_ASLIFT=0 RX=CxMa:"M2,2[1i0,0i1,-1i0,0i-1]"

In: FL_ASLIFT=0 FL_CPXRES=0 IM=2COMPL RX=CxMa:"M3,2[1i2,3i4,5i6,7i8,9i10,11i12]"
Out: EC=21 FL_CPXRES=0 FL_ASLIFT=0 RX=CxMa:"M3,2[1i2,3i4,5i6,7i8,9i10,11i12]"

In: FL_ASLIFT=0 FL_CPXRES=0 IM=2COMPL RX=Real:"2"
Out: EC=24 FL_CPXRES=0 FL_ASLIFT=0 RX=Real:"2"



;=======================================
; Euclidean (aka Frobenius) norm
;=======================================
Func: fnEuclideanNorm
In: FL_ASLIFT=0 FL_CPXRES=0 IM=2COMPL RX=ReMa:"M3,2[1,2,3,4,5,6]"
Out: EC=0 FL_CPXRES=0 FL_ASLIFT=1 RL=ReMa:"M3,2[1,2,3,4,5,6]" RX=Real:"9.5393920141694564915262158602322654025462342525054575390815185291"

In: FL_ASLIFT=0 FL_CPXRES=0 IM=2COMPL RX=CxMa:"M3,2[1i2,3i4,5i6,7i8,9i10,11i12]"
Out: EC=0 FL_CPXRES=0 FL_ASLIFT=1 RL=CxMa:"M3,2[1i2,3i4,5i6,7i8,9i10,11i12]" RX=Real:"25.495097567963924150141120545113909947818854730497982037924854022"

In: FL_ASLIFT=0 FL_CPXRES=0 IM=2COMPL RX=Real:"2"
Out: EC=24 FL_CPXRES=0 FL_ASLIFT=0 RX=Real:"2"



;=======================================
; Row sum
;=======================================
Func: fnRowSum
In: FL_ASLIFT=0 FL_CPXRES=0 IM=2COMPL RX=ReMa:"M3,2[1,2,3,4,5,6]"
Out: EC=0 FL_CPXRES=0 FL_ASLIFT=1 RL=ReMa:"M3,2[1,2,3,4,5,6]" RX=ReMa:"M3,1[3,7,11]"

In: FL_ASLIFT=0 FL_CPXRES=0 IM=2COMPL RX=CxMa:"M3,2[1i2,3i4,5i6,7i8,9i10,11i12]"
Out: EC=0 FL_CPXRES=1 FL_ASLIFT=1 RL=CxMa:"M3,2[1i2,3i4,5i6,7i8,9i10,11i12]" RX=CxMa:"M3,1[4i6,12i14,20i22]"

In: FL_ASLIFT=0 FL_CPXRES=0 IM=2COMPL RX=Real:"2"
Out: EC=24 FL_CPXRES=0 FL_ASLIFT=0 RX=Real:"2"



;=======================================
; Row norm
;=======================================
Func: fnRowNorm
In: FL_ASLIFT=0 FL_CPXRES=0 IM=2COMPL RX=ReMa:"M3,2[1,2,3,4,5,6]"
Out: EC=0 FL_CPXRES=0 FL_ASLIFT=1 RL=ReMa:"M3,2[1,2,3,4,5,6]" RX=Real:"11"

In: FL_ASLIFT=0 FL_CPXRES=0 IM=2COMPL RX=CxMa:"M3,2[1i2,3i4,5i6,7i8,9i10,11i12]"
Out: EC=0 FL_CPXRES=0 FL_ASLIFT=1 RL=CxMa:"M3,2[1i2,3i4,5i6,7i8,9i10,11i12]" RX=Real:"29.732444643173416704516101372154237347879368698904136289004950223"

In: FL_ASLIFT=0 FL_CPXRES=0 IM=2COMPL RX=Real:"2"
Out: EC=24 FL_CPXRES=0 FL_ASLIFT=0 RX=Real:"2"



;=======================================
; Vector angle
;=======================================
Func: fnVectorAngle
In: AM=Deg FL_ASLIFT=0 FL_CPXRES=0 IM=2COMPL RY=ReMa:"M1,2[1,2]" RX=ReMa:"M2,1[3,4]"
Out: EC=0 FL_CPXRES=0 FL_ASLIFT=1 RL=ReMa:"M2,1[3,4]" RX=Real:"10.30484646876603194528341883864011598638735710106433691604195105413580253554577816487427856819350584":Deg

In: AM=Rad FL_ASLIFT=0 FL_CPXRES=0 IM=2COMPL RY=ReMa:"M1,2[1,2]" RX=ReMa:"M2,1[3,4]"
Out: EC=0 FL_CPXRES=0 FL_ASLIFT=1 RL=ReMa:"M2,1[3,4]" RX=Real:"0.1798534997924782705885529972561082360129735368291921190546730299933146106458793834122165607163948563":Rad

In: AM=Grad FL_ASLIFT=0 FL_CPXRES=0 IM=2COMPL RY=ReMa:"M1,2[1,2]" RX=ReMa:"M2,1[3,4]"
Out: EC=0 FL_CPXRES=0 FL_ASLIFT=1 RL=ReMa:"M2,1[3,4]" RX=Real:"11.449829409740035494759354265155684429319285667849263240046612282":Grad

In: AM=Deg FL_ASLIFT=0 FL_CPXRES=0 IM=2COMPL RY=ReMa:"M1,3[1,2,3]" RX=ReMa:"M3,1[4,5,6]"
Out: EC=0 FL_CPXRES=0 FL_ASLIFT=1 RL=ReMa:"M3,1[4,5,6]" RX=Real:"12.93315449189911937002800159681536437258698072489592200654859361820236332376560964830284310088047898":Deg

In: AM=Rad FL_ASLIFT=0 FL_CPXRES=0 IM=2COMPL RY=ReMa:"M1,3[1,2,3]" RX=ReMa:"M3,1[4,5,6]"
Out: EC=0 FL_CPXRES=0 FL_ASLIFT=1 RL=ReMa:"M3,1[4,5,6]" RX=Real:"0.2257261285527339361186934608557414488067560097661106091049396482421193961074150914568055600554670487":Rad

In: AM=Grad FL_ASLIFT=0 FL_CPXRES=0 IM=2COMPL RY=ReMa:"M1,3[1,2,3]" RX=ReMa:"M3,1[4,5,6]"
Out: EC=0 FL_CPXRES=0 FL_ASLIFT=1 RL=ReMa:"M3,1[4,5,6]" RX=Real:"14.370171657665688188920001774239293747318867472106580007276215131":Grad

In: AM=Deg FL_ASLIFT=0 FL_CPXRES=0 IM=2COMPL RY=ReMa:"M1,2[1,2]" RX=ReMa:"M3,1[3,4,5]"
Out: EC=21 FL_CPXRES=0 FL_ASLIFT=0 RY=ReMa:"M1,2[1,2]" RX=ReMa:"M3,1[3,4,5]"

In: AM=Deg FL_ASLIFT=0 FL_CPXRES=0 IM=2COMPL RY=ReMa:"M1,4[1,2,3,4]" RX=ReMa:"M4,1[5,6,7,8]"
Out: EC=21 FL_CPXRES=0 FL_ASLIFT=0 RY=ReMa:"M1,4[1,2,3,4]" RX=ReMa:"M4,1[5,6,7,8]"

In: AM=Deg FL_ASLIFT=0 FL_CPXRES=0 IM=2COMPL RY=ReMa:"M3,2[1,2,3,4,5,6]" RX=ReMa:"M3,2[7,8,9,10,11,12]"
Out: EC=21 FL_CPXRES=0 FL_ASLIFT=0 RY=ReMa:"M3,2[1,2,3,4,5,6]" RX=ReMa:"M3,2[7,8,9,10,11,12]"

In: FL_ASLIFT=0 FL_CPXRES=0 IM=2COMPL RX=Real:"2"
Out: EC=24 FL_CPXRES=0 FL_ASLIFT=0 RX=Real:"2"



;=======================================
; QR Decomposition
;=======================================
Func: fnQrDecomposition
In: FL_ASLIFT=0 FL_CPXRES=0 IM=2COMPL RX=ReMa:"M2,2[1,2,3,4]"
Out: EC=0 FL_CPXRES=0 FL_ASLIFT=1 RL=ReMa:"M2,2[1,2,3,4]" RX=ReMa:"M2,2[?,?,0,?]"
Func: fnMultiply ; check undoing decomposition
Out: EC=0 FL_CPXRES=0 FL_ASLIFT=1 RX=ReMa:"M2,2[1,2,3,4]"
Func: fnQrDecomposition ; check orthogonality
In: FL_ASLIFT=0 FL_CPXRES=0 IM=2COMPL RX=ReMa:"M2,2[1,2,3,4]"
Out: EC=0 FL_CPXRES=0 FL_ASLIFT=1 RL=ReMa:"M2,2[1,2,3,4]" RX=ReMa:"M2,2[?,?,0,?]"
Func: fnSwapXY
Out: EC=0 FL_CPXRES=0 FL_ASLIFT=1
Func: fnFillStack
Out: EC=0 FL_CPXRES=0 FL_ASLIFT=1
Func: fnTranspose
Out: EC=0 FL_CPXRES=0 FL_ASLIFT=1
Func: fnMultiply
Out: EC=0 FL_CPXRES=0 FL_ASLIFT=1 RX=ReMa:"M2,2[1,0,0,1]"

Func: fnQrDecomposition
In: FL_ASLIFT=0 FL_CPXRES=0 IM=2COMPL RX=ReMa:"M3,2[1,2,3,4,5,6]"
Out: EC=21 FL_CPXRES=0 FL_ASLIFT=0 RX=ReMa:"M3,2[1,2,3,4,5,6]"

In: FL_ASLIFT=0 FL_CPXRES=0 IM=2COMPL RX=CxMa:"M2,2[1i2,3i4,5i6,7i8]"
Out: EC=0 FL_CPXRES=1 FL_ASLIFT=1 RL=CxMa:"M2,2[1i2,3i4,5i6,7i8]" RX=CxMa:"M2,2[?,?,0,?]"
Func: fnMultiply ; check undoing decomposition
Out: EC=0 FL_CPXRES=1 FL_ASLIFT=1 RX=CxMa:"M2,2[1i2,3i4,5i6,7i8]"
Func: fnQrDecomposition ; check unitariness
In: FL_ASLIFT=0 FL_CPXRES=0 IM=2COMPL RX=CxMa:"M2,2[1i2,3i4,5i6,7i8]"
Out: EC=0 FL_CPXRES=1 FL_ASLIFT=1 RL=CxMa:"M2,2[1i2,3i4,5i6,7i8]" RX=CxMa:"M2,2[?,?,0,?]"
Func: fnSwapXY
Out: EC=0 FL_CPXRES=1 FL_ASLIFT=1
Func: fnFillStack
Out: EC=0 FL_CPXRES=1 FL_ASLIFT=1
Func: fnTranspose
Out: EC=0 FL_CPXRES=1 FL_ASLIFT=1
Func: fnConjugate
Out: EC=0 FL_CPXRES=1 FL_ASLIFT=1
Func: fnMultiply
Out: EC=0 FL_CPXRES=1 FL_ASLIFT=1 RX=CxMa:"M2,2[1,0,0,1]"

Func: fnQrDecomposition
In: FL_ASLIFT=0 FL_CPXRES=0 IM=2COMPL RX=CxMa:"M3,2[1i2,3i4,5i6,7i8,9i10,11i12]"
Out: EC=21 FL_CPXRES=0 FL_ASLIFT=0 RX=CxMa:"M3,2[1i2,3i4,5i6,7i8,9i10,11i12]"

In: FL_ASLIFT=0 FL_CPXRES=0 IM=2COMPL RX=Real:"2"
Out: EC=24 FL_CPXRES=0 FL_ASLIFT=0 RX=Real:"2"



;=======================================
; Eigenvalues
;=======================================
Func: fnEigenvalues
In: FL_ASLIFT=0 FL_CPXRES=0 IM=2COMPL RX=ReMa:"M2,2[1,2,3,4]"
Out: EC=0 FL_CPXRES=0 FL_ASLIFT=1 RL=ReMa:"M2,2[1,2,3,4]" RX=ReMa:"M2,2[5.3722813232690143299253057341094646591101322289913961838499387352,0,0,-0.372281323269014329925305734109464659110132228991396183849938735]"

In: FL_ASLIFT=0 FL_CPXRES=0 IM=2COMPL RX=ReMa:"M3,3[1,2,3,4,5,6,7,8,9]"
Out: EC=0 FL_CPXRES=0 FL_ASLIFT=1 RL=ReMa:"M3,3[1,2,3,4,5,6,7,8,9]" RX=ReMa:"M3,3[16.1168439698070429897759172023283939773,0,0,0,-1.11684396980704298977591720232839397733,0,0,0,0]"

In: FL_ASLIFT=0 FL_CPXRES=0 IM=2COMPL RX=ReMa:"M4,4[1,2,0,0,2,3,4,0,0,4,5,6,0,0,6,7]"
Out: EC=0 FL_CPXRES=0 FL_ASLIFT=1 RL=ReMa:"M4,4[1,2,0,0,2,3,4,0,0,4,5,6,0,0,6,7]" RX=ReMa:"M4,4[12.8436703629024818840360839786175092820,0,0,0,0,4.93655257826671587843605226348503337955,0,0,0,0,-2.48478751777664766905503094864132370502,0,0,0,0,0.704564576607449906582894706538781043520]"

In: FL_ASLIFT=0 FL_CPXRES=1 IM=2COMPL RX=ReMa:"M2,2[0,-1,1,0]"
Out: EC=0 FL_CPXRES=1 FL_ASLIFT=1 RL=ReMa:"M2,2[0,-1,1,0]" RX=CxMa:"M2,2[0i1,0,0,0i-1]"

In: FL_ASLIFT=0 FL_CPXRES=0 IM=2COMPL RX=ReMa:"M3,2[1,2,3,4,5,6]"
Out: EC=21 FL_CPXRES=0 FL_ASLIFT=0 RX=ReMa:"M3,2[1,2,3,4,5,6]"

In: FL_ASLIFT=0 FL_CPXRES=0 IM=2COMPL RX=CxMa:"M2,2[1i2,3i4,5i6,7i8]"
Out: EC=0 FL_CPXRES=1 FL_ASLIFT=1 RL=CxMa:"M2,2[1i2,3i4,5i6,7i8]" RX=CxMa:"M2,2[8.884598430267780429214819274652178993357143803036698530538666696i10.73230336121305295214305210959447927564575812424373700536699603,0,0,-0.88459843026778042921481927465217899335714380303669853053866669i-0.73230336121305295214305210959447927564575812424373700536699603]"

In: FL_ASLIFT=0 FL_CPXRES=0 IM=2COMPL RX=CxMa:"M3,2[1i2,3i4,5i6,7i8,9i10,11i12]"
Out: EC=21 FL_CPXRES=0 FL_ASLIFT=0 RX=CxMa:"M3,2[1i2,3i4,5i6,7i8,9i10,11i12]"

In: FL_ASLIFT=0 FL_CPXRES=0 IM=2COMPL RX=Real:"2"
Out: EC=24 FL_CPXRES=0 FL_ASLIFT=0 RX=Real:"2"



;=======================================
; Eigenvectors
;=======================================
Func: fnEigenvectors
; the opposite direction will be allowed here
In: FL_ASLIFT=0 FL_CPXRES=0 IM=2COMPL RX=ReMa:"M2,2[1,2,3,4]"
Out: EC=0 FL_CPXRES=0 FL_ASLIFT=1 RL=ReMa:"M2,2[1,2,3,4]" RX=ReMa:"M2,2[0.415973557919284272575105384867529811726,-0.824564840132393765369050717078772678961,0.909376709132124107229038001070350876239,0.565767464968992284722887627980526731252]"

In: FL_ASLIFT=0 FL_CPXRES=0 IM=2COMPL RX=ReMa:"M3,3[1,2,3,4,5,6,7,8,9]"
Out: EC=0 FL_CPXRES=0 FL_ASLIFT=1 RL=ReMa:"M3,3[1,2,3,4,5,6,7,8,9]" RX=ReMa:"M3,3[0.231970687246285861660847159963658451121,-0.785830238742067101675101014904077793290,?,0.525322093301233693431987995128990931612,-0.0867513392566284536150418787153147671072,?,0.818673499356181525203128830294323412103,0.612327560228810194445017257473448259076,?]"

In: FL_ASLIFT=0 FL_CPXRES=1 IM=2COMPL RX=ReMa:"M2,2[0,-1,1,0]"
Out: EC=0 FL_CPXRES=1 FL_ASLIFT=1 RL=ReMa:"M2,2[0,-1,1,0]" RX=CxMa:"M2,2[0.707106781186547524400844362104849039285,0.707106781186547524400844362104849039285,0i-0.707106781186547524400844362104849039285,0i0.707106781186547524400844362104849039285]"

In: FL_ASLIFT=0 FL_CPXRES=0 IM=2COMPL RX=ReMa:"M3,2[1,2,3,4,5,6]"
Out: EC=21 FL_CPXRES=0 FL_ASLIFT=0 RX=ReMa:"M3,2[1,2,3,4,5,6]"

; For complex matrices, divided by sqrt((a + bi)^2 + (c + di)^2) (rather than norm = sqrt(a^2 + b^2 + c^2 + d^2)) then checked
In: FL_ASLIFT=0 FL_CPXRES=0 IM=2COMPL RX=CxMa:"M2,2[1i2,3i4,5i6,7i8]"
Out: EC=0 FL_CPXRES=1 FL_ASLIFT=1 RL=CxMa:"M2,2[1i2,3i4,5i6,7i8]" RX=CxMa:"M2,2[0.390383581081206384467531221189875581175i0.030143344178748225545159258082208839900,-0.833351764284674033346589549471949785405i0.010114930746920511304188183349046366851,0.921234196817803007438228798949152841288i-0.012773588612875144724700915548189366893,0.553045617376392261802570292334119286598i+0.015241591504786641670314461284779315551]"

In: FL_ASLIFT=0 FL_CPXRES=0 IM=2COMPL RX=CxMa:"M3,2[1i2,3i4,5i6,7i8,9i10,11i12]"
Out: EC=21 FL_CPXRES=0 FL_ASLIFT=0 RX=CxMa:"M3,2[1i2,3i4,5i6,7i8,9i10,11i12]"

In: FL_ASLIFT=0 FL_CPXRES=0 IM=2COMPL RX=Real:"2"
Out: EC=24 FL_CPXRES=0 FL_ASLIFT=0 RX=Real:"2"
