;*************************************************************
;*************************************************************
;**                                                         **
;**      QF of standard normal (Gaussian) distribution      **
;**                                                         **
;*************************************************************
;*************************************************************
In: FL_SPCRES=0 FL_CPXRES=0 SD=0 RMODE=0 IM=2compl SS=4 WS=64
Func: fnStdNormalI



;=======================================
; stdNormalI(Long Integer) --> Real
;=======================================
In:  AM=DEG FL_ASLIFT=0 FL_CPXRES=0 RX=Real:"0.5"
Out: EC=0 FL_CPXRES=0 FL_ASLIFT=1 RL=Real:"0.5" RX=Real:"0"

In:  AM=DEG FL_ASLIFT=0 FL_CPXRES=0 RX=Real:"0.25"
Out: EC=0 FL_CPXRES=0 FL_ASLIFT=1 RL=Real:"0.25" RX=Real:"-0.6744897501960817432022270145413072"

In:  AM=DEG FL_ASLIFT=0 FL_CPXRES=0 RX=Real:"0.75"
Out: EC=0 FL_CPXRES=0 FL_ASLIFT=1 RL=Real:"0.75" RX=Real:"0.6744897501960817432022270145413072"

In:  AM=DEG FL_ASLIFT=0 FL_CPXRES=0 RX=Real:"0.1"
Out: EC=0 FL_CPXRES=0 FL_ASLIFT=1 RL=Real:"0.1" RX=Real:"-1.281551565544600466965103329448743"

In:  AM=DEG FL_ASLIFT=0 FL_CPXRES=0 RX=Real:"0.9"
Out: EC=0 FL_CPXRES=0 FL_ASLIFT=1 RL=Real:"0.9" RX=Real:"1.281551565544600466965103329448743"



;=======================================
; stdNormalI(Time) --> Error24
;=======================================



;=======================================
; stdNormalI(Date) --> Error24
;=======================================



;=======================================
; stdNormalI(String) --> Error24
;=======================================
In:  FL_ASLIFT=0 RX=Stri:"String test"
Out: EC=24 FL_ASLIFT=0 RX=Stri:"String test"



;=======================================
; stdNormalI(Real Matrix) --> Error24
;=======================================



;=======================================
; stdNormalI(Complex Matrix) --> Error24
;=======================================



;=======================================
; stdNormalI(Short Integer) --> Error24
;=======================================



;=======================================
; stdNormalI(Real) --> Real
;=======================================
In:  AM=DEG FL_ASLIFT=0 FL_CPXRES=0 RX=Real:"0.5"
Out: EC=0 FL_CPXRES=0 FL_ASLIFT=1 RL=Real:"0.5" RX=Real:"0"

In:  AM=DEG FL_ASLIFT=0 FL_CPXRES=0 RX=Real:"0.25"
Out: EC=0 FL_CPXRES=0 FL_ASLIFT=1 RL=Real:"0.25" RX=Real:"-0.6744897501960817432022270145413072"

In:  AM=DEG FL_ASLIFT=0 FL_CPXRES=0 RX=Real:"0.75"
Out: EC=0 FL_CPXRES=0 FL_ASLIFT=1 RL=Real:"0.75" RX=Real:"0.6744897501960817432022270145413072"

In:  AM=DEG FL_ASLIFT=0 FL_CPXRES=0 RX=Real:"0.1"
Out: EC=0 FL_CPXRES=0 FL_ASLIFT=1 RL=Real:"0.1" RX=Real:"-1.281551565544600466965103329448743"

In:  AM=DEG FL_ASLIFT=0 FL_CPXRES=0 RX=Real:"0.9"
Out: EC=0 FL_CPXRES=0 FL_ASLIFT=1 RL=Real:"0.9" RX=Real:"1.281551565544600466965103329448743"


;=======================================
; stdNormalI(Complex) --> Error24
;=======================================
