;*************************************************************
;*************************************************************
;**                                                         **
;**                    REAL - ...                           **
;**                    ... - REAL                           **
;**                                                         **
;*************************************************************
;*************************************************************
In: FL_SPCRES=0 FL_CPXRES=0 SD=0 RMODE=0 IM=2compl SS=4 WS=64
Func: fnSubtract



;==================================================================
; Real  - Long Integer      see in subtraction_longInteger.txt
; Real  - Time              see in subtraction_time.txt
; Real  - Date              see in subtraction_date.txt
; Real  - String            see in subtraction_string.txt
; Real  - Real Matrix       see in subtraction_realMatrix.txt
; Real  - Complex Matrix    see in subtraction_complexMatrix.txt
; Real  - Short Integer     see in subtraction_shortInteger.txt
;==================================================================



;=======================================
; Real - Real --> Real
;=======================================
In:  FL_ASLIFT=0 FL_CPXRES=0 IM=2COMPL RY=Real:"123456.789" RX=Real:"45247.54264"
Out: EC=0 FL_CPXRES=0 FL_ASLIFT=1 RL=Real:"45247.54264" RX=Real:"78209.24636"

In:  AM=DEG FL_CPXRES=0 FL_ASLIFT=0 RY=Real:"2" RX=Real:"123.4":DEG
Out: EC=0 FL_CPXRES=0 FL_ASLIFT=1 RL=Real:"123.4":DEG RX=Real:"-121.4":DEG

In:  AM=DMS FL_CPXRES=0 FL_ASLIFT=0 RY=Real:"2.5" RX=Real:"123.4":DEG
Out: EC=0 FL_CPXRES=0 FL_ASLIFT=1 RL=Real:"123.4":DEG RX=Real:"-120.9":DMS

In:  AM=GRAD FL_CPXRES=0 FL_ASLIFT=0 RY=Real:"2" RX=Real:"123.4":DEG
Out: EC=0 FL_CPXRES=0 FL_ASLIFT=1 RL=Real:"123.4":DEG RX=Real:"-135.11111111111111111111111111111111111111111111111111111111111":GRAD

In:  AM=RAD FL_CPXRES=0 FL_ASLIFT=0 RY=Real:"2" RX=Real:"123.4":DEG
Out: EC=0 FL_CPXRES=0 FL_ASLIFT=1 RL=Real:"123.4":DEG RX=Real:"-0.1537362969610026979238344083149480883885039104604892128239342":RAD

In:  AM=MULTPI FL_CPXRES=0 FL_ASLIFT=0 RY=Real:"2" RX=Real:"123.4":DEG
Out: EC=0 FL_CPXRES=0 FL_ASLIFT=1 RL=Real:"123.4":DEG RX=Real:"1.314444444444444444444444444444444":MULTPI

In:  AM=DEG FL_CPXRES=0 FL_ASLIFT=0 RY=Real:"2" RX=Real:"123.453099":DMS
Out: EC=0 FL_CPXRES=0 FL_ASLIFT=1 RL=Real:"123.453099":DMS RX=Real:"-121.453099":DEG

In:  AM=DMS FL_CPXRES=0 FL_ASLIFT=0 RY=Real:"2" RX=Real:"123.453099":DMS
Out: EC=0 FL_CPXRES=0 FL_ASLIFT=1 RL=Real:"123.453099":DMS RX=Real:"-121.453099":DMS

In:  AM=GRAD FL_CPXRES=0 FL_ASLIFT=0 RY=Real:"2" RX=Real:"123.453099":DMS
Out: EC=0 FL_CPXRES=0 FL_ASLIFT=1 RL=Real:"123.453099":DMS RX=Real:"-135.17011":GRAD

In:  AM=RAD FL_CPXRES=0 FL_ASLIFT=0 RY=Real:"2" RX=Real:"123.453099":DMS
Out: EC=0 FL_CPXRES=0 FL_ASLIFT=1 RL=Real:"123.453099":DMS RX=Real:"-0.15466304934051916698588511887610785685321494100458598362386729":RAD

In:  AM=MULTPI FL_CPXRES=0 FL_ASLIFT=0 RY=Real:"2" RX=Real:"123.453099":DMS
Out: EC=0 FL_CPXRES=0 FL_ASLIFT=1 RL=Real:"123.453099":DMS RX=Real:"1.31414945":MULTPI

In:  AM=DEG FL_CPXRES=0 FL_ASLIFT=0 RY=Real:"2" RX=Real:"123.453099":GRAD
Out: EC=0 FL_CPXRES=0 FL_ASLIFT=1 RL=Real:"123.453099":GRAD RX=Real:"-109.1077891":DEG

In:  AM=DMS FL_CPXRES=0 FL_ASLIFT=0 RY=Real:"2" RX=Real:"123.453099":GRAD
Out: EC=0 FL_CPXRES=0 FL_ASLIFT=1 RL=Real:"123.453099":GRAD RX=Real:"-109.1077891":DMS

In:  AM=GRAD FL_CPXRES=0 FL_ASLIFT=0 RY=Real:"2" RX=Real:"123.453099":GRAD
Out: EC=0 FL_CPXRES=0 FL_ASLIFT=1 RL=Real:"123.453099":GRAD RX=Real:"-121.453099":GRAD

In:  AM=RAD FL_CPXRES=0 FL_ASLIFT=0 RY=Real:"2" RX=Real:"123.453099":GRAD
Out: EC=0 FL_CPXRES=0 FL_ASLIFT=1 RL=Real:"123.453099":GRAD RX=Real:"0.06080325559353274971270339301150292883210655309587261473851944":RAD

In:  AM=MULTPI FL_CPXRES=0 FL_ASLIFT=0 RY=Real:"2" RX=Real:"123.453099":GRAD
Out: EC=0 FL_CPXRES=0 FL_ASLIFT=1 RL=Real:"123.453099":GRAD RX=Real:"1.382734505":MULTPI

In:  AM=DEG FL_CPXRES=0 FL_ASLIFT=0 RY=Real:"2" RX=Real:"3.453099789":RAD
Out: EC=0 FL_CPXRES=0 FL_ASLIFT=1 RL=Real:"3.453099789":RAD RX=Real:"-195.84804414721508495930200338417589789863839683673856829633339":DEG

In:  AM=DMS FL_CPXRES=0 FL_ASLIFT=0 RY=Real:"2" RX=Real:"3.453099789":RAD
Out: EC=0 FL_CPXRES=0 FL_ASLIFT=1 RL=Real:"3.453099789":RAD RX=Real:"-195.84804414721508495930200338417589789863839683673856829633339":DMS

In:  AM=GRAD FL_CPXRES=0 FL_ASLIFT=0 RY=Real:"2" RX=Real:"3.453099789":RAD
Out: EC=0 FL_CPXRES=0 FL_ASLIFT=1 RL=Real:"3.453099789":RAD RX=Real:"-217.83116016357231662144667042686210877626488537415396477370377":GRAD

In:  AM=RAD FL_CPXRES=0 FL_ASLIFT=0 RY=Real:"2" RX=Real:"3.453099789":RAD
Out: EC=0 FL_CPXRES=0 FL_ASLIFT=1 RL=Real:"3.453099789":RAD RX=Real:"-1.453099789":RAD

In:  AM=MULTPI FL_CPXRES=0 FL_ASLIFT=0 RY=Real:"2" RX=Real:"3.453099789":RAD
Out: EC=0 FL_CPXRES=0 FL_ASLIFT=1 RL=Real:"3.453099789":RAD RX=Real:"0.9008441991821384168927666478656895":MULTPI

In:  AM=DEG FL_CPXRES=0 FL_ASLIFT=0 RY=Real:"2" RX=Real:"3.453099789":MULTPI
Out: EC=0 FL_CPXRES=0 FL_ASLIFT=1 RL=Real:"3.453099789":MULTPI RX=Real:"-619.55796202":DEG

In:  AM=DMS FL_CPXRES=0 FL_ASLIFT=0 RY=Real:"2" RX=Real:"3.453099789":MULTPI
Out: EC=0 FL_CPXRES=0 FL_ASLIFT=1 RL=Real:"3.453099789":MULTPI RX=Real:"-619.55796202":DMS

In:  AM=GRAD FL_CPXRES=0 FL_ASLIFT=0 RY=Real:"2" RX=Real:"3.453099789":MULTPI
Out: EC=0 FL_CPXRES=0 FL_ASLIFT=1 RL=Real:"3.453099789":MULTPI RX=Real:"-688.6199578":GRAD

In:  AM=RAD FL_CPXRES=0 FL_ASLIFT=0 RY=Real:"2" RX=Real:"3.453099789":MULTPI
Out: EC=0 FL_CPXRES=0 FL_ASLIFT=1 RL=Real:"3.453099789":MULTPI RX=Real:"-8.848232929234865124288980551184698":RAD

In:  AM=MULTPI FL_CPXRES=0 FL_ASLIFT=0 RY=Real:"2" RX=Real:"3.453099789":MULTPI
Out: EC=0 FL_CPXRES=0 FL_ASLIFT=1 RL=Real:"3.453099789":MULTPI RX=Real:"-1.453099789":MULTPI

In:  AM=DEG FL_CPXRES=0 FL_ASLIFT=0 RY=Real:"123.4":DEG RX=Real:"2"
Out: EC=0 FL_CPXRES=0 FL_ASLIFT=1 RL=Real:"2" RX=Real:"121.4":DEG

In:  AM=DMS FL_CPXRES=0 FL_ASLIFT=0 RY=Real:"123.4":DEG RX=Real:"2.5"
Out: EC=0 FL_CPXRES=0 FL_ASLIFT=1 RL=Real:"2.5" RX=Real:"120.9":DMS

In:  AM=GRAD FL_CPXRES=0 FL_ASLIFT=0 RY=Real:"123.4":DEG RX=Real:"2"
Out: EC=0 FL_CPXRES=0 FL_ASLIFT=1 RL=Real:"2" RX=Real:"135.11111111111111111111111111111111111111111111111111111111111":GRAD

In:  AM=RAD FL_CPXRES=0 FL_ASLIFT=0 RY=Real:"123.4":DEG RX=Real:"2"
Out: EC=0 FL_CPXRES=0 FL_ASLIFT=1 RL=Real:"2" RX=Real:"0.1537362969610026979238344083149480883885039104604892128239342":RAD

In:  AM=MULTPI FL_CPXRES=0 FL_ASLIFT=0 RY=Real:"123.4":DEG RX=Real:"2"
Out: EC=0 FL_CPXRES=0 FL_ASLIFT=1 RL=Real:"2" RX=Real:"-1.314444444444444444444444444444444":MULTPI

In:  AM=DEG FL_CPXRES=0 FL_ASLIFT=0 RY=Real:"123.453099":DMS RX=Real:"2"
Out: EC=0 FL_CPXRES=0 FL_ASLIFT=1 RL=Real:"2" RX=Real:"121.453099":DEG

In:  AM=DMS FL_CPXRES=0 FL_ASLIFT=0 RY=Real:"123.453099":DMS RX=Real:"2"
Out: EC=0 FL_CPXRES=0 FL_ASLIFT=1 RL=Real:"2" RX=Real:"121.453099":DMS

In:  AM=GRAD FL_CPXRES=0 FL_ASLIFT=0 RY=Real:"123.453099":DMS RX=Real:"2"
Out: EC=0 FL_CPXRES=0 FL_ASLIFT=1 RL=Real:"2" RX=Real:"135.17011":GRAD

In:  AM=RAD FL_CPXRES=0 FL_ASLIFT=0 RY=Real:"123.453099":DMS RX=Real:"2"
Out: EC=0 FL_CPXRES=0 FL_ASLIFT=1 RL=Real:"2" RX=Real:"0.15466304934051916698588511887610785685321494100458598362386729":RAD

In:  AM=MULTPI FL_CPXRES=0 FL_ASLIFT=0 RY=Real:"123.453099":DMS RX=Real:"2"
Out: EC=0 FL_CPXRES=0 FL_ASLIFT=1 RL=Real:"2" RX=Real:"-1.31414945":MULTPI

In:  AM=DEG FL_CPXRES=0 FL_ASLIFT=0 RY=Real:"123.453099":GRAD RX=Real:"2"
Out: EC=0 FL_CPXRES=0 FL_ASLIFT=1 RL=Real:"2" RX=Real:"109.1077891":DEG

In:  AM=DMS FL_CPXRES=0 FL_ASLIFT=0 RY=Real:"123.453099":GRAD RX=Real:"2"
Out: EC=0 FL_CPXRES=0 FL_ASLIFT=1 RL=Real:"2" RX=Real:"109.1077891":DMS

In:  AM=GRAD FL_CPXRES=0 FL_ASLIFT=0 RY=Real:"123.453099":GRAD RX=Real:"2"
Out: EC=0 FL_CPXRES=0 FL_ASLIFT=1 RL=Real:"2" RX=Real:"121.453099":GRAD

In:  AM=RAD FL_CPXRES=0 FL_ASLIFT=0 RY=Real:"123.453099":GRAD RX=Real:"2"
Out: EC=0 FL_CPXRES=0 FL_ASLIFT=1 RL=Real:"2" RX=Real:"-0.06080325559353274971270339301150292883210655309587261473851944":RAD

In:  AM=MULTPI FL_CPXRES=0 FL_ASLIFT=0 RY=Real:"123.453099":GRAD RX=Real:"2"
Out: EC=0 FL_CPXRES=0 FL_ASLIFT=1 RL=Real:"2" RX=Real:"-1.382734505":MULTPI

In:  AM=DEG FL_CPXRES=0 FL_ASLIFT=0 RY=Real:"3.453099789":RAD RX=Real:"2"
Out: EC=0 FL_CPXRES=0 FL_ASLIFT=1 RL=Real:"2" RX=Real:"195.84804414721508495930200338417589789863839683673856829633339":DEG

In:  AM=DMS FL_CPXRES=0 FL_ASLIFT=0 RY=Real:"3.453099789":RAD RX=Real:"2"
Out: EC=0 FL_CPXRES=0 FL_ASLIFT=1 RL=Real:"2" RX=Real:"195.84804414721508495930200338417589789863839683673856829633339":DMS

In:  AM=GRAD FL_CPXRES=0 FL_ASLIFT=0 RY=Real:"3.453099789":RAD RX=Real:"2"
Out: EC=0 FL_CPXRES=0 FL_ASLIFT=1 RL=Real:"2" RX=Real:"217.83116016357231662144667042686210877626488537415396477370377":GRAD

In:  AM=RAD FL_CPXRES=0 FL_ASLIFT=0 RY=Real:"3.453099789":RAD RX=Real:"2"
Out: EC=0 FL_CPXRES=0 FL_ASLIFT=1 RL=Real:"2" RX=Real:"1.453099789":RAD

In:  AM=MULTPI FL_CPXRES=0 FL_ASLIFT=0 RY=Real:"3.453099789":RAD RX=Real:"2"
Out: EC=0 FL_CPXRES=0 FL_ASLIFT=1 RL=Real:"2" RX=Real:"-0.9008441991821384168927666478656895":MULTPI

In:  AM=DEG FL_CPXRES=0 FL_ASLIFT=0 RY=Real:"3.453099789":MULTPI RX=Real:"2"
Out: EC=0 FL_CPXRES=0 FL_ASLIFT=1 RL=Real:"2" RX=Real:"619.55796202":DEG

In:  AM=DMS FL_CPXRES=0 FL_ASLIFT=0 RY=Real:"3.453099789":MULTPI RX=Real:"2"
Out: EC=0 FL_CPXRES=0 FL_ASLIFT=1 RL=Real:"2" RX=Real:"619.55796202":DMS

In:  AM=GRAD FL_CPXRES=0 FL_ASLIFT=0 RY=Real:"3.453099789":MULTPI RX=Real:"2"
Out: EC=0 FL_CPXRES=0 FL_ASLIFT=1 RL=Real:"2" RX=Real:"688.6199578":GRAD

In:  AM=RAD FL_CPXRES=0 FL_ASLIFT=0 RY=Real:"3.453099789":MULTPI RX=Real:"2"
Out: EC=0 FL_CPXRES=0 FL_ASLIFT=1 RL=Real:"2" RX=Real:"8.848232929234865124288980551184698":RAD

In:  AM=MULTPI FL_CPXRES=0 FL_ASLIFT=0 RY=Real:"3.453099789":MULTPI RX=Real:"2"
Out: EC=0 FL_CPXRES=0 FL_ASLIFT=1 RL=Real:"2" RX=Real:"1.453099789":MULTPI

In:  AM=DEG FL_CPXRES=0 FL_ASLIFT=0 RY=Real:"123.4":DEG RX=Real:"2":DEG
Out: EC=0 FL_CPXRES=0 FL_ASLIFT=1 RL=Real:"2":DEG RX=Real:"121.4":DEG

In:  AM=DMS FL_CPXRES=0 FL_ASLIFT=0 RY=Real:"123.4":DEG RX=Real:"2.5":DMS
Out: EC=0 FL_CPXRES=0 FL_ASLIFT=1 RL=Real:"2.5":DMS RX=Real:"120.9":DMS

In:  AM=GRAD FL_CPXRES=0 FL_ASLIFT=0 RY=Real:"123.4":DEG RX=Real:"2":GRAD
Out: EC=0 FL_CPXRES=0 FL_ASLIFT=1 RL=Real:"2":GRAD RX=Real:"135.11111111111111111111111111111111111111111111111111111111111":GRAD

In:  AM=RAD FL_CPXRES=0 FL_ASLIFT=0 RY=Real:"123.4":DEG RX=Real:"2":RAD
Out: EC=0 FL_CPXRES=0 FL_ASLIFT=1 RL=Real:"2":RAD RX=Real:"0.1537362969610026979238344083149480883885039104604892128239342":RAD

In:  AM=MULTPI FL_CPXRES=0 FL_ASLIFT=0 RY=Real:"123.4":DEG RX=Real:"2":MULTPI
Out: EC=0 FL_CPXRES=0 FL_ASLIFT=1 RL=Real:"2":MULTPI RX=Real:"-1.314444444444444444444444444444444":MULTPI

In:  AM=DEG FL_CPXRES=0 FL_ASLIFT=0 RY=Real:"123.453099":DMS RX=Real:"2":DEG
Out: EC=0 FL_CPXRES=0 FL_ASLIFT=1 RL=Real:"2":DEG RX=Real:"121.453099":DEG

In:  AM=DMS FL_CPXRES=0 FL_ASLIFT=0 RY=Real:"123.453099":DMS RX=Real:"2":DMS
Out: EC=0 FL_CPXRES=0 FL_ASLIFT=1 RL=Real:"2":DMS RX=Real:"121.453099":DMS

In:  AM=GRAD FL_CPXRES=0 FL_ASLIFT=0 RY=Real:"123.453099":DMS RX=Real:"2":GRAD
Out: EC=0 FL_CPXRES=0 FL_ASLIFT=1 RL=Real:"2":GRAD RX=Real:"135.17011":GRAD

In:  AM=RAD FL_CPXRES=0 FL_ASLIFT=0 RY=Real:"123.453099":DMS RX=Real:"2":RAD
Out: EC=0 FL_CPXRES=0 FL_ASLIFT=1 RL=Real:"2":RAD RX=Real:"0.15466304934051916698588511887610785685321494100458598362386729":RAD

In:  AM=MULTPI FL_CPXRES=0 FL_ASLIFT=0 RY=Real:"123.453099":DMS RX=Real:"2":MULTPI
Out: EC=0 FL_CPXRES=0 FL_ASLIFT=1 RL=Real:"2":MULTPI RX=Real:"-1.31414945":MULTPI

In:  AM=DEG FL_CPXRES=0 FL_ASLIFT=0 RY=Real:"123.453099":GRAD RX=Real:"2":DEG
Out: EC=0 FL_CPXRES=0 FL_ASLIFT=1 RL=Real:"2":DEG RX=Real:"109.1077891":DEG

In:  AM=DMS FL_CPXRES=0 FL_ASLIFT=0 RY=Real:"123.453099":GRAD RX=Real:"2":DMS
Out: EC=0 FL_CPXRES=0 FL_ASLIFT=1 RL=Real:"2":DMS RX=Real:"109.1077891":DMS

In:  AM=GRAD FL_CPXRES=0 FL_ASLIFT=0 RY=Real:"123.453099":GRAD RX=Real:"2":GRAD
Out: EC=0 FL_CPXRES=0 FL_ASLIFT=1 RL=Real:"2":GRAD RX=Real:"121.453099":GRAD

In:  AM=RAD FL_CPXRES=0 FL_ASLIFT=0 RY=Real:"123.453099":GRAD RX=Real:"2":RAD
Out: EC=0 FL_CPXRES=0 FL_ASLIFT=1 RL=Real:"2":RAD RX=Real:"-0.06080325559353274971270339301150292883210655309587261473851944":RAD

In:  AM=MULTPI FL_CPXRES=0 FL_ASLIFT=0 RY=Real:"123.453099":GRAD RX=Real:"2":MULTPI
Out: EC=0 FL_CPXRES=0 FL_ASLIFT=1 RL=Real:"2":MULTPI RX=Real:"-1.382734505":MULTPI

In:  AM=DEG FL_CPXRES=0 FL_ASLIFT=0 RY=Real:"3.453099789":RAD RX=Real:"2":DEG
Out: EC=0 FL_CPXRES=0 FL_ASLIFT=1 RL=Real:"2":DEG RX=Real:"195.84804414721508495930200338417589789863839683673856829633339":DEG

In:  AM=DMS FL_CPXRES=0 FL_ASLIFT=0 RY=Real:"3.453099789":RAD RX=Real:"2":DMS
Out: EC=0 FL_CPXRES=0 FL_ASLIFT=1 RL=Real:"2":DMS RX=Real:"195.84804414721508495930200338417589789863839683673856829633339":DMS

In:  AM=GRAD FL_CPXRES=0 FL_ASLIFT=0 RY=Real:"3.453099789":RAD RX=Real:"2":GRAD
Out: EC=0 FL_CPXRES=0 FL_ASLIFT=1 RL=Real:"2":GRAD RX=Real:"217.83116016357231662144667042686210877626488537415396477370377":GRAD

In:  AM=RAD FL_CPXRES=0 FL_ASLIFT=0 RY=Real:"3.453099789":RAD RX=Real:"2":RAD
Out: EC=0 FL_CPXRES=0 FL_ASLIFT=1 RL=Real:"2":RAD RX=Real:"1.453099789":RAD

In:  AM=MULTPI FL_CPXRES=0 FL_ASLIFT=0 RY=Real:"3.453099789":RAD RX=Real:"2":MULTPI
Out: EC=0 FL_CPXRES=0 FL_ASLIFT=1 RL=Real:"2":MULTPI RX=Real:"-0.9008441991821384168927666478656895":MULTPI

In:  AM=DEG FL_CPXRES=0 FL_ASLIFT=0 RY=Real:"3.453099789":MULTPI RX=Real:"2":DEG
Out: EC=0 FL_CPXRES=0 FL_ASLIFT=1 RL=Real:"2":DEG RX=Real:"619.55796202":DEG

In:  AM=DMS FL_CPXRES=0 FL_ASLIFT=0 RY=Real:"3.453099789":MULTPI RX=Real:"2":DMS
Out: EC=0 FL_CPXRES=0 FL_ASLIFT=1 RL=Real:"2":DMS RX=Real:"619.55796202":DMS

In:  AM=GRAD FL_CPXRES=0 FL_ASLIFT=0 RY=Real:"3.453099789":MULTPI RX=Real:"2":GRAD
Out: EC=0 FL_CPXRES=0 FL_ASLIFT=1 RL=Real:"2":GRAD RX=Real:"688.6199578":GRAD

In:  AM=RAD FL_CPXRES=0 FL_ASLIFT=0 RY=Real:"3.453099789":MULTPI RX=Real:"2":RAD
Out: EC=0 FL_CPXRES=0 FL_ASLIFT=1 RL=Real:"2":RAD RX=Real:"8.848232929234865124288980551184698":RAD

In:  AM=MULTPI FL_CPXRES=0 FL_ASLIFT=0 RY=Real:"3.453099789":MULTPI RX=Real:"2":MULTPI
Out: EC=0 FL_CPXRES=0 FL_ASLIFT=1 RL=Real:"2":MULTPI RX=Real:"1.453099789":MULTPI



;=======================================
; Real - Complex --> Complex
;=======================================
In:  FL_ASLIFT=0 FL_CPXRES=0 RY=Real:"12540" RX=Cplx:"123.456 i -6.78"
Out: EC=0 FL_CPXRES=1 FL_ASLIFT=1 RL=Cplx:"123.456 i -6.78" RX=Cplx:"12416.544 i 6.78"

In:  FL_ASLIFT=0 FL_CPXRES=0 RY=Real:"12540":DEG RX=Cplx:"123.456 i -6.78"
Out: EC=0 FL_CPXRES=1 FL_ASLIFT=1 RL=Cplx:"123.456 i -6.78" RX=Cplx:"12416.544 i 6.78"

;=======================================
; Complex - Real --> Complex
;=======================================
In:  FL_ASLIFT=0 FL_CPXRES=0 RY=Cplx:"123.456 i -6.78" RX=Real:"12540"
Out: EC=0 FL_CPXRES=1 FL_ASLIFT=1 RL=Real:"12540" RX=Cplx:"-12416.544 i -6.78"

In:  FL_ASLIFT=0 FL_CPXRES=0 RY=Cplx:"123.456 i -6.78" RX=Real:"12540":DEG
Out: EC=0 FL_CPXRES=1 FL_ASLIFT=1 RL=Real:"12540":DEG RX=Cplx:"-12416.544 i -6.78"
