;*************************************************************
;*************************************************************
;**                                                         **
;**              QF of Student's t distribution             **
;**                                                         **
;*************************************************************
;*************************************************************
In: FL_SPCRES=0 FL_CPXRES=0 SD=0 RMODE=0 IM=2compl SS=4 WS=64
Func: fnT_I



;=======================================
; T_I(Long Integer) --> Real
;=======================================
In:  AM=DEG FL_ASLIFT=0 FL_CPXRES=0 RM=LonI:"1" RX=Real:"0.5"
Out: EC=0 FL_CPXRES=0 FL_ASLIFT=1 RL=Real:"0.5" RX=Real:"0"

In:  AM=DEG FL_ASLIFT=0 FL_CPXRES=0 RM=LonI:"1" RX=Real:"0.25"
Out: EC=0 FL_CPXRES=0 FL_ASLIFT=1 RL=Real:"0.25" RX=Real:"-1"

In:  AM=DEG FL_ASLIFT=0 FL_CPXRES=0 RM=LonI:"1" RX=Real:"0.75"
Out: EC=0 FL_CPXRES=0 FL_ASLIFT=1 RL=Real:"0.75" RX=Real:"1"

In:  AM=DEG FL_ASLIFT=0 FL_CPXRES=0 RM=LonI:"1" RX=Real:"0.1"
Out: EC=0 FL_CPXRES=0 FL_ASLIFT=1 RL=Real:"0.1" RX=Real:"-3.07768353717525340257029057603691"

In:  AM=DEG FL_ASLIFT=0 FL_CPXRES=0 RM=LonI:"1" RX=Real:"0.9"
Out: EC=0 FL_CPXRES=0 FL_ASLIFT=1 RL=Real:"0.9" RX=Real:"3.07768353717525340257029057603691"

In:  AM=DEG FL_ASLIFT=0 FL_CPXRES=0 RM=LonI:"1" RX=Real:"0.05"
Out: EC=0 FL_CPXRES=0 FL_ASLIFT=1 RL=Real:"0.05" RX=Real:"-6.3137515146750430989794642447681860594"

In:  AM=DEG FL_ASLIFT=0 FL_CPXRES=0 RM=LonI:"1" RX=Real:"0.95"
Out: EC=0 FL_CPXRES=0 FL_ASLIFT=1 RL=Real:"0.95" RX=Real:"6.3137515146750430989794642447681860594"


In:  AM=DEG FL_ASLIFT=0 FL_CPXRES=0 RM=LonI:"2" RX=Real:"0.5"
Out: EC=0 FL_CPXRES=0 FL_ASLIFT=1 RL=Real:"0.5" RX=Real:"0"

In:  AM=DEG FL_ASLIFT=0 FL_CPXRES=0 RM=LonI:"2" RX=Real:"0.25"
Out: EC=0 FL_CPXRES=0 FL_ASLIFT=1 RL=Real:"0.25" RX=Real:"-0.8164965809277260327324280249019638"

In:  AM=DEG FL_ASLIFT=0 FL_CPXRES=0 RM=LonI:"2" RX=Real:"0.75"
Out: EC=0 FL_CPXRES=0 FL_ASLIFT=1 RL=Real:"0.75" RX=Real:"0.8164965809277260327324280249019638"

In:  AM=DEG FL_ASLIFT=0 FL_CPXRES=0 RM=LonI:"2" RX=Real:"0.1"
Out: EC=0 FL_CPXRES=0 FL_ASLIFT=1 RL=Real:"0.1" RX=Real:"-1.885618083164126731735584965612931"

In:  AM=DEG FL_ASLIFT=0 FL_CPXRES=0 RM=LonI:"2" RX=Real:"0.9"
Out: EC=0 FL_CPXRES=0 FL_ASLIFT=1 RL=Real:"0.9" RX=Real:"1.885618083164126731735584965612931"

In:  AM=DEG FL_ASLIFT=0 FL_CPXRES=0 RM=LonI:"2" RX=Real:"0.05"
Out: EC=0 FL_CPXRES=0 FL_ASLIFT=1 RL=Real:"0.05" RX=Real:"-2.919985580353725686960617443846747"

In:  AM=DEG FL_ASLIFT=0 FL_CPXRES=0 RM=LonI:"2" RX=Real:"0.95"
Out: EC=0 FL_CPXRES=0 FL_ASLIFT=1 RL=Real:"0.95" RX=Real:"2.919985580353725686960617443846747"


In:  AM=DEG FL_ASLIFT=0 FL_CPXRES=0 RM=LonI:"3" RX=Real:"0.5"
Out: EC=0 FL_CPXRES=0 FL_ASLIFT=1 RL=Real:"0.5" RX=Real:"0"

In:  AM=DEG FL_ASLIFT=0 FL_CPXRES=0 RM=LonI:"3" RX=Real:"0.25"
Out: EC=0 FL_CPXRES=0 FL_ASLIFT=1 RL=Real:"0.25" RX=Real:"-0.7648923284043452806575452223324015"

In:  AM=DEG FL_ASLIFT=0 FL_CPXRES=0 RM=LonI:"3" RX=Real:"0.75"
Out: EC=0 FL_CPXRES=0 FL_ASLIFT=1 RL=Real:"0.75" RX=Real:"0.7648923284043452806575452223324015"

In:  AM=DEG FL_ASLIFT=0 FL_CPXRES=0 RM=LonI:"3" RX=Real:"0.1"
Out: EC=0 FL_CPXRES=0 FL_ASLIFT=1 RL=Real:"0.1" RX=Real:"-1.637744353696210105458905056896857"

In:  AM=DEG FL_ASLIFT=0 FL_CPXRES=0 RM=LonI:"3" RX=Real:"0.9"
Out: EC=0 FL_CPXRES=0 FL_ASLIFT=1 RL=Real:"0.9" RX=Real:"1.637744353696210105458905056896857"

In:  AM=DEG FL_ASLIFT=0 FL_CPXRES=0 RM=LonI:"3" RX=Real:"0.05"
Out: EC=0 FL_CPXRES=0 FL_ASLIFT=1 RL=Real:"0.05" RX=Real:"-2.353363434801823877671223978899933"

In:  AM=DEG FL_ASLIFT=0 FL_CPXRES=0 RM=LonI:"3" RX=Real:"0.95"
Out: EC=0 FL_CPXRES=0 FL_ASLIFT=1 RL=Real:"0.95" RX=Real:"2.353363434801823877671223978899933"



;=======================================
; T_I(Time) --> Error24
;=======================================



;=======================================
; T_I(Date) --> Error24
;=======================================



;=======================================
; T_I(String) --> Error24
;=======================================
In:  FL_ASLIFT=0 RX=Stri:"String test"
Out: EC=24 FL_ASLIFT=0 RX=Stri:"String test"



;=======================================
; T_I(Real Matrix) --> Error24
;=======================================



;=======================================
; T_I(Complex Matrix) --> Error24
;=======================================



;=======================================
; T_I(Short Integer) --> Error24
;=======================================



;=======================================
; T_I(Real) --> Real
;=======================================
In:  AM=DEG FL_ASLIFT=0 FL_CPXRES=0 RM=Real:"1" RX=Real:"0.5"
Out: EC=0 FL_CPXRES=0 FL_ASLIFT=1 RL=Real:"0.5" RX=Real:"0"

In:  AM=DEG FL_ASLIFT=0 FL_CPXRES=0 RM=Real:"1" RX=Real:"0.25"
Out: EC=0 FL_CPXRES=0 FL_ASLIFT=1 RL=Real:"0.25" RX=Real:"-1"

In:  AM=DEG FL_ASLIFT=0 FL_CPXRES=0 RM=Real:"1" RX=Real:"0.75"
Out: EC=0 FL_CPXRES=0 FL_ASLIFT=1 RL=Real:"0.75" RX=Real:"1"

In:  AM=DEG FL_ASLIFT=0 FL_CPXRES=0 RM=Real:"1" RX=Real:"0.1"
Out: EC=0 FL_CPXRES=0 FL_ASLIFT=1 RL=Real:"0.1" RX=Real:"-3.07768353717525340257029057603691"

In:  AM=DEG FL_ASLIFT=0 FL_CPXRES=0 RM=Real:"1" RX=Real:"0.9"
Out: EC=0 FL_CPXRES=0 FL_ASLIFT=1 RL=Real:"0.9" RX=Real:"3.07768353717525340257029057603691"

In:  AM=DEG FL_ASLIFT=0 FL_CPXRES=0 RM=Real:"1" RX=Real:"0.05"
Out: EC=0 FL_CPXRES=0 FL_ASLIFT=1 RL=Real:"0.05" RX=Real:"-6.3137515146750430989794642447681860594"

In:  AM=DEG FL_ASLIFT=0 FL_CPXRES=0 RM=Real:"1" RX=Real:"0.95"
Out: EC=0 FL_CPXRES=0 FL_ASLIFT=1 RL=Real:"0.95" RX=Real:"6.3137515146750430989794642447681860594"


In:  AM=DEG FL_ASLIFT=0 FL_CPXRES=0 RM=Real:"2" RX=Real:"0.5"
Out: EC=0 FL_CPXRES=0 FL_ASLIFT=1 RL=Real:"0.5" RX=Real:"0"

In:  AM=DEG FL_ASLIFT=0 FL_CPXRES=0 RM=Real:"2" RX=Real:"0.25"
Out: EC=0 FL_CPXRES=0 FL_ASLIFT=1 RL=Real:"0.25" RX=Real:"-0.8164965809277260327324280249019638"

In:  AM=DEG FL_ASLIFT=0 FL_CPXRES=0 RM=Real:"2" RX=Real:"0.75"
Out: EC=0 FL_CPXRES=0 FL_ASLIFT=1 RL=Real:"0.75" RX=Real:"0.8164965809277260327324280249019638"

In:  AM=DEG FL_ASLIFT=0 FL_CPXRES=0 RM=Real:"2" RX=Real:"0.1"
Out: EC=0 FL_CPXRES=0 FL_ASLIFT=1 RL=Real:"0.1" RX=Real:"-1.885618083164126731735584965612931"

In:  AM=DEG FL_ASLIFT=0 FL_CPXRES=0 RM=Real:"2" RX=Real:"0.9"
Out: EC=0 FL_CPXRES=0 FL_ASLIFT=1 RL=Real:"0.9" RX=Real:"1.885618083164126731735584965612931"

In:  AM=DEG FL_ASLIFT=0 FL_CPXRES=0 RM=Real:"2" RX=Real:"0.05"
Out: EC=0 FL_CPXRES=0 FL_ASLIFT=1 RL=Real:"0.05" RX=Real:"-2.919985580353725686960617443846747"

In:  AM=DEG FL_ASLIFT=0 FL_CPXRES=0 RM=Real:"2" RX=Real:"0.95"
Out: EC=0 FL_CPXRES=0 FL_ASLIFT=1 RL=Real:"0.95" RX=Real:"2.919985580353725686960617443846747"


In:  AM=DEG FL_ASLIFT=0 FL_CPXRES=0 RM=Real:"3" RX=Real:"0.5"
Out: EC=0 FL_CPXRES=0 FL_ASLIFT=1 RL=Real:"0.5" RX=Real:"0"

In:  AM=DEG FL_ASLIFT=0 FL_CPXRES=0 RM=Real:"3" RX=Real:"0.25"
Out: EC=0 FL_CPXRES=0 FL_ASLIFT=1 RL=Real:"0.25" RX=Real:"-0.7648923284043452806575452223324015"

In:  AM=DEG FL_ASLIFT=0 FL_CPXRES=0 RM=Real:"3" RX=Real:"0.75"
Out: EC=0 FL_CPXRES=0 FL_ASLIFT=1 RL=Real:"0.75" RX=Real:"0.7648923284043452806575452223324015"

In:  AM=DEG FL_ASLIFT=0 FL_CPXRES=0 RM=Real:"3" RX=Real:"0.1"
Out: EC=0 FL_CPXRES=0 FL_ASLIFT=1 RL=Real:"0.1" RX=Real:"-1.637744353696210105458905056896857"

In:  AM=DEG FL_ASLIFT=0 FL_CPXRES=0 RM=Real:"3" RX=Real:"0.9"
Out: EC=0 FL_CPXRES=0 FL_ASLIFT=1 RL=Real:"0.9" RX=Real:"1.637744353696210105458905056896857"

In:  AM=DEG FL_ASLIFT=0 FL_CPXRES=0 RM=Real:"3" RX=Real:"0.05"
Out: EC=0 FL_CPXRES=0 FL_ASLIFT=1 RL=Real:"0.05" RX=Real:"-2.353363434801823877671223978899933"

In:  AM=DEG FL_ASLIFT=0 FL_CPXRES=0 RM=Real:"3" RX=Real:"0.95"
Out: EC=0 FL_CPXRES=0 FL_ASLIFT=1 RL=Real:"0.95" RX=Real:"2.353363434801823877671223978899933"



;=======================================
; T_I(Complex) --> Error24
;=======================================
