;*************************************************************
;*************************************************************
;**                                                         **
;**             PDF of Student's t distribution             **
;**                                                         **
;*************************************************************
;*************************************************************
In: FL_SPCRES=0 FL_CPXRES=0 SD=0 RMODE=0 IM=2compl SS=4 WS=64
Func: fnT_P



;=======================================
; T_P(Long Integer) --> Real
;=======================================
In:  AM=DEG FL_ASLIFT=0 FL_CPXRES=0 RM=LonI:"1" RX=LonI:"0"
Out: EC=0 FL_CPXRES=0 FL_ASLIFT=1 RL=LonI:"0" RX=Real:"0.3183098861837906715377675267450287"

In:  AM=DEG FL_ASLIFT=0 FL_CPXRES=0 RM=LonI:"1" RX=LonI:"1"
Out: EC=0 FL_CPXRES=0 FL_ASLIFT=1 RL=LonI:"1" RX=Real:"0.1591549430918953357688837633725144"

In:  AM=DEG FL_ASLIFT=0 FL_CPXRES=0 RM=LonI:"1" RX=LonI:"-1"
Out: EC=0 FL_CPXRES=0 FL_ASLIFT=1 RL=LonI:"-1" RX=Real:"0.1591549430918953357688837633725144"

In:  AM=DEG FL_ASLIFT=0 FL_CPXRES=0 RM=LonI:"1" RX=LonI:"2"
Out: EC=0 FL_CPXRES=0 FL_ASLIFT=1 RL=LonI:"2" RX=Real:"0.06366197723675813430755350534900574"

In:  AM=DEG FL_ASLIFT=0 FL_CPXRES=0 RM=LonI:"1" RX=LonI:"-2"
Out: EC=0 FL_CPXRES=0 FL_ASLIFT=1 RL=LonI:"-2" RX=Real:"0.06366197723675813430755350534900574"

In:  AM=DEG FL_ASLIFT=0 FL_CPXRES=0 RM=LonI:"1" RX=LonI:"3"
Out: EC=0 FL_CPXRES=0 FL_ASLIFT=1 RL=LonI:"3" RX=Real:"0.03183098861837906715377675267450287"

In:  AM=DEG FL_ASLIFT=0 FL_CPXRES=0 RM=LonI:"1" RX=LonI:"-3"
Out: EC=0 FL_CPXRES=0 FL_ASLIFT=1 RL=LonI:"-3" RX=Real:"0.03183098861837906715377675267450287"


In:  AM=DEG FL_ASLIFT=0 FL_CPXRES=0 RM=LonI:"2" RX=LonI:"0"
Out: EC=0 FL_CPXRES=0 FL_ASLIFT=1 RL=LonI:"0" RX=Real:"0.3535533905932737622004221810524245"

In:  AM=DEG FL_ASLIFT=0 FL_CPXRES=0 RM=LonI:"2" RX=LonI:"1"
Out: EC=0 FL_CPXRES=0 FL_ASLIFT=1 RL=LonI:"1" RX=Real:"0.1924500897298752548363829268339858"

In:  AM=DEG FL_ASLIFT=0 FL_CPXRES=0 RM=LonI:"2" RX=LonI:"-1"
Out: EC=0 FL_CPXRES=0 FL_ASLIFT=1 RL=LonI:"-1" RX=Real:"0.1924500897298752548363829268339858"

In:  AM=DEG FL_ASLIFT=0 FL_CPXRES=0 RM=LonI:"2" RX=LonI:"2"
Out: EC=0 FL_CPXRES=0 FL_ASLIFT=1 RL=LonI:"2" RX=Real:"0.06804138174397716939436900207516365"

In:  AM=DEG FL_ASLIFT=0 FL_CPXRES=0 RM=LonI:"2" RX=LonI:"-2"
Out: EC=0 FL_CPXRES=0 FL_ASLIFT=1 RL=LonI:"-2" RX=Real:"0.06804138174397716939436900207516365"

In:  AM=DEG FL_ASLIFT=0 FL_CPXRES=0 RM=LonI:"2" RX=LonI:"3"
Out: EC=0 FL_CPXRES=0 FL_ASLIFT=1 RL=LonI:"3" RX=Real:"0.02741012223434214751334655154273295"

In:  AM=DEG FL_ASLIFT=0 FL_CPXRES=0 RM=LonI:"2" RX=LonI:"-3"
Out: EC=0 FL_CPXRES=0 FL_ASLIFT=1 RL=LonI:"-3" RX=Real:"0.02741012223434214751334655154273295"


In:  AM=DEG FL_ASLIFT=0 FL_CPXRES=0 RM=LonI:"3" RX=LonI:"0"
Out: EC=0 FL_CPXRES=0 FL_ASLIFT=1 RL=LonI:"0" RX=Real:"0.3675525969478613663408843322086463"

In:  AM=DEG FL_ASLIFT=0 FL_CPXRES=0 RM=LonI:"3" RX=LonI:"1"
Out: EC=0 FL_CPXRES=0 FL_ASLIFT=1 RL=LonI:"1" RX=Real:"0.2067483357831720185667474368673635"

In:  AM=DEG FL_ASLIFT=0 FL_CPXRES=0 RM=LonI:"3" RX=LonI:"-1"
Out: EC=0 FL_CPXRES=0 FL_ASLIFT=1 RL=LonI:"-1" RX=Real:"0.2067483357831720185667474368673635"

In:  AM=DEG FL_ASLIFT=0 FL_CPXRES=0 RM=LonI:"3" RX=LonI:"2"
Out: EC=0 FL_CPXRES=0 FL_ASLIFT=1 RL=LonI:"2" RX=Real:"0.06750966066389290402179508142607789"

In:  AM=DEG FL_ASLIFT=0 FL_CPXRES=0 RM=LonI:"3" RX=LonI:"-2"
Out: EC=0 FL_CPXRES=0 FL_ASLIFT=1 RL=LonI:"-2" RX=Real:"0.06750966066389290402179508142607789"

In:  AM=DEG FL_ASLIFT=0 FL_CPXRES=0 RM=LonI:"3" RX=LonI:"3"
Out: EC=0 FL_CPXRES=0 FL_ASLIFT=1 RL=LonI:"3" RX=Real:"0.02297203730924133539630527076304039"

In:  AM=DEG FL_ASLIFT=0 FL_CPXRES=0 RM=LonI:"3" RX=LonI:"-3"
Out: EC=0 FL_CPXRES=0 FL_ASLIFT=1 RL=LonI:"-3" RX=Real:"0.02297203730924133539630527076304039"



;=======================================
; T_P(Time) --> Error24
;=======================================



;=======================================
; T_P(Date) --> Error24
;=======================================



;=======================================
; T_P(String) --> Error24
;=======================================
In:  FL_ASLIFT=0 RX=Stri:"String test"
Out: EC=24 FL_ASLIFT=0 RX=Stri:"String test"



;=======================================
; T_P(Real Matrix) --> Error24
;=======================================



;=======================================
; T_P(Complex Matrix) --> Error24
;=======================================



;=======================================
; T_P(Short Integer) --> Error24
;=======================================



;=======================================
; T_P(Real) --> Real
;=======================================
In:  AM=DEG FL_ASLIFT=0 FL_CPXRES=0 RM=Real:"1" RX=Real:"0"
Out: EC=0 FL_CPXRES=0 FL_ASLIFT=1 RL=Real:"0" RX=Real:"0.3183098861837906715377675267450287"

In:  AM=DEG FL_ASLIFT=0 FL_CPXRES=0 RM=Real:"1" RX=Real:"1"
Out: EC=0 FL_CPXRES=0 FL_ASLIFT=1 RL=Real:"1" RX=Real:"0.1591549430918953357688837633725144"

In:  AM=DEG FL_ASLIFT=0 FL_CPXRES=0 RM=Real:"1" RX=Real:"-1"
Out: EC=0 FL_CPXRES=0 FL_ASLIFT=1 RL=Real:"-1" RX=Real:"0.1591549430918953357688837633725144"

In:  AM=DEG FL_ASLIFT=0 FL_CPXRES=0 RM=Real:"1" RX=Real:"2"
Out: EC=0 FL_CPXRES=0 FL_ASLIFT=1 RL=Real:"2" RX=Real:"0.06366197723675813430755350534900574"

In:  AM=DEG FL_ASLIFT=0 FL_CPXRES=0 RM=Real:"1" RX=Real:"-2"
Out: EC=0 FL_CPXRES=0 FL_ASLIFT=1 RL=Real:"-2" RX=Real:"0.06366197723675813430755350534900574"

In:  AM=DEG FL_ASLIFT=0 FL_CPXRES=0 RM=Real:"1" RX=Real:"3"
Out: EC=0 FL_CPXRES=0 FL_ASLIFT=1 RL=Real:"3" RX=Real:"0.03183098861837906715377675267450287"

In:  AM=DEG FL_ASLIFT=0 FL_CPXRES=0 RM=Real:"1" RX=Real:"-3"
Out: EC=0 FL_CPXRES=0 FL_ASLIFT=1 RL=Real:"-3" RX=Real:"0.03183098861837906715377675267450287"


In:  AM=DEG FL_ASLIFT=0 FL_CPXRES=0 RM=Real:"2" RX=Real:"0"
Out: EC=0 FL_CPXRES=0 FL_ASLIFT=1 RL=Real:"0" RX=Real:"0.3535533905932737622004221810524245"

In:  AM=DEG FL_ASLIFT=0 FL_CPXRES=0 RM=Real:"2" RX=Real:"1"
Out: EC=0 FL_CPXRES=0 FL_ASLIFT=1 RL=Real:"1" RX=Real:"0.1924500897298752548363829268339858"

In:  AM=DEG FL_ASLIFT=0 FL_CPXRES=0 RM=Real:"2" RX=Real:"-1"
Out: EC=0 FL_CPXRES=0 FL_ASLIFT=1 RL=Real:"-1" RX=Real:"0.1924500897298752548363829268339858"

In:  AM=DEG FL_ASLIFT=0 FL_CPXRES=0 RM=Real:"2" RX=Real:"2"
Out: EC=0 FL_CPXRES=0 FL_ASLIFT=1 RL=Real:"2" RX=Real:"0.06804138174397716939436900207516365"

In:  AM=DEG FL_ASLIFT=0 FL_CPXRES=0 RM=Real:"2" RX=Real:"-2"
Out: EC=0 FL_CPXRES=0 FL_ASLIFT=1 RL=Real:"-2" RX=Real:"0.06804138174397716939436900207516365"

In:  AM=DEG FL_ASLIFT=0 FL_CPXRES=0 RM=Real:"2" RX=Real:"3"
Out: EC=0 FL_CPXRES=0 FL_ASLIFT=1 RL=Real:"3" RX=Real:"0.02741012223434214751334655154273295"

In:  AM=DEG FL_ASLIFT=0 FL_CPXRES=0 RM=Real:"2" RX=Real:"-3"
Out: EC=0 FL_CPXRES=0 FL_ASLIFT=1 RL=Real:"-3" RX=Real:"0.02741012223434214751334655154273295"


In:  AM=DEG FL_ASLIFT=0 FL_CPXRES=0 RM=Real:"3" RX=Real:"0"
Out: EC=0 FL_CPXRES=0 FL_ASLIFT=1 RL=Real:"0" RX=Real:"0.3675525969478613663408843322086463"

In:  AM=DEG FL_ASLIFT=0 FL_CPXRES=0 RM=Real:"3" RX=Real:"1"
Out: EC=0 FL_CPXRES=0 FL_ASLIFT=1 RL=Real:"1" RX=Real:"0.2067483357831720185667474368673635"

In:  AM=DEG FL_ASLIFT=0 FL_CPXRES=0 RM=Real:"3" RX=Real:"-1"
Out: EC=0 FL_CPXRES=0 FL_ASLIFT=1 RL=Real:"-1" RX=Real:"0.2067483357831720185667474368673635"

In:  AM=DEG FL_ASLIFT=0 FL_CPXRES=0 RM=Real:"3" RX=Real:"2"
Out: EC=0 FL_CPXRES=0 FL_ASLIFT=1 RL=Real:"2" RX=Real:"0.06750966066389290402179508142607789"

In:  AM=DEG FL_ASLIFT=0 FL_CPXRES=0 RM=Real:"3" RX=Real:"-2"
Out: EC=0 FL_CPXRES=0 FL_ASLIFT=1 RL=Real:"-2" RX=Real:"0.06750966066389290402179508142607789"

In:  AM=DEG FL_ASLIFT=0 FL_CPXRES=0 RM=Real:"3" RX=Real:"3"
Out: EC=0 FL_CPXRES=0 FL_ASLIFT=1 RL=Real:"3" RX=Real:"0.02297203730924133539630527076304039"

In:  AM=DEG FL_ASLIFT=0 FL_CPXRES=0 RM=Real:"3" RX=Real:"-3"
Out: EC=0 FL_CPXRES=0 FL_ASLIFT=1 RL=Real:"-3" RX=Real:"0.02297203730924133539630527076304039"



;=======================================
; T_P(Complex) --> Error24
;=======================================
